
Better solution found in 230 with 91
Script ran with tabu search using a max of 300 iterations and a tabu list with size 200.
Ended by iteration limit.
Best solution found with 118 move(s).
Initial solution was: [<Cheese>, <[{u'Name': u'HEALTH RESTORED:', u'Value': u'2500'}, {u'Name': u'MANA RESTORED:', u'Value': u'1000'}]>, <0>, <Recipe: Necronomicon>, <None>, <0>, <Healing Salve>, <[{u'Name': u'DURATION:', u'Value': u'10'}, {u'Name': u'HEALTH RESTORED:', u'Value': u'400'}]>, <0>, <Energy Booster>, <[{u'Name': u'Mana', u'Value': u'+250'}]>, <0>, <Recipe: Shiva's Guard>, <None>, <0>, <Phase Boots>, <[{u'Name': u'PHASE DURATION:', u'Value': u'4'}, {u'Name': u'PHASE MOVE BOOST:', u'Value': u'16%'}, {u'Name': u'Movement Speed', u'Value': u'+55'}, {u'Name': u'Damage', u'Value': u'+24'}]>, <0>]
Movements made: 
--- <Remove [<Healing Salve>, <[{u'Name': u'DURATION:', u'Value': u'10'}, {u'Name': u'HEALTH RESTORED:', u'Value': u'400'}]>, <0>] | Add [<Heart of Tarrasque>, <[{u'Name': u'Strength', u'Value': u'+40'}, {u'Name': u'Health', u'Value': u'+300'}, {u'Name': u'HEALTH RESTORED:', u'Value': u'2%'}]>, <40>] | Improve 40> 
--- <Remove [<Energy Booster>, <[{u'Name': u'Mana', u'Value': u'+250'}]>, <0>] | Add [<Reaver>, <[{u'Name': u'Strength', u'Value': u'+25'}]>, <25>] | Improve 25> 
--- <Remove [] | Add [<Ogre Club>, <[{u'Name': u'Strength', u'Value': u'+10'}]>, <10>] | Improve 10> 
--- <Remove [] | Add [<Gauntlets of Strength>, <[{u'Name': u'Strength', u'Value': u'+3'}]>, <3>] | Improve 3> 
--- <Remove [] | Add [<Gauntlets of Strength>, <[{u'Name': u'Strength', u'Value': u'+3'}]>, <3>] | Improve 3> 
--- <Remove [] | Add [<Ogre Club>, <[{u'Name': u'Strength', u'Value': u'+10'}]>, <10>] | Improve 10> 
--- <Remove [] | Add [<Gauntlets of Strength>, <[{u'Name': u'Strength', u'Value': u'+3'}]>, <3>] | Improve 3> 
--- <Remove [] | Add [<Circlet>, <[{u'Name': u'All Attributes', u'Value': u'+2'}]>, <2>] | Improve 2> 
--- <Remove [] | Add [<Circlet>, <[{u'Name': u'All Attributes', u'Value': u'+2'}]>, <2>] | Improve 2> 
--- <Remove [] | Add [<Circlet>, <[{u'Name': u'All Attributes', u'Value': u'+2'}]>, <2>] | Improve 2> 
--- <Remove [] | Add [<Iron Branch>, <[{u'Name': u'All Attributes', u'Value': u'+1'}]>, <1>] | Improve 1> 
--- <Remove [] | Add [<Iron Branch>, <[{u'Name': u'All Attributes', u'Value': u'+1'}]>, <1>] | Improve 1> 
--- <Remove [] | Add [<Iron Branch>, <[{u'Name': u'All Attributes', u'Value': u'+1'}]>, <1>] | Improve 1> 
--- <Remove [] | Add [<Recipe: Black King Bar>, <None>, <0>] | Improve 0> 
--- <Remove [] | Add [<Recipe: Bloodstone>, <None>, <0>] | Improve 0> 
--- <Remove [] | Add [<Recipe: Black King Bar>, <None>, <0>] | Improve 0> 
--- <Remove [] | Add [<Recipe: Pipe of Insight>, <None>, <0>] | Improve 0> 
--- <Remove [] | Add [<Recipe: Ring of Basilius>, <None>, <0>] | Improve 0> 
--- <Remove [] | Add [<Recipe: Null Talisman>, <None>, <0>] | Improve 0> 
--- <Remove [] | Add [<Gauntlets of Strength>, <[{u'Name': u'Strength', u'Value': u'+3'}]>, <3>] | Improve 3> 
--- <Remove [] | Add [<Recipe: Vanguard>, <None>, <0>] | Improve 0> 
--- <Remove [] | Add [<Magic Stick>, <[{u'Name': u'RESTORE PER CHARGE:', u'Value': u'15'}]>, <0>] | Improve 0> 
--- <Remove [] | Add [<Healing Salve>, <[{u'Name': u'DURATION:', u'Value': u'10'}, {u'Name': u'HEALTH RESTORED:', u'Value': u'400'}]>, <0>] | Improve 0> 
--- <Remove [] | Add [<Sentry Ward>, <[]>, <0>] | Improve 0> 
--- <Remove [<Sentry Ward>, <[]>, <0>] | Add [<Gauntlets of Strength>, <[{u'Name': u'Strength', u'Value': u'+3'}]>, <3>] | Improve 3> 
--- <Remove [] | Add [<Recipe: Black King Bar>, <None>, <0>] | Improve 0> 
--- <Remove [] | Add [<Recipe: Magic Wand>, <None>, <0>] | Improve 0> 
--- <Remove [] | Add [<Recipe: Null Talisman>, <None>, <0>] | Improve 0> 
--- <Remove [] | Add [<Recipe: Headdress>, <None>, <0>] | Improve 0> 
--- <Remove [] | Add [<Recipe: Scythe of Vyse>, <None>, <0>] | Improve 0> 
--- <Remove [] | Add [<Recipe: Poor Man's Shield>, <None>, <0>] | Improve 0> 
--- <Remove [] | Add [<Recipe: Ring of Basilius>, <None>, <0>] | Improve 0> 
--- <Remove [] | Add [<Recipe: Boots of Travel>, <None>, <0>] | Improve 0> 
--- <Remove [] | Add [<Recipe: Pipe of Insight>, <None>, <0>] | Improve 0> 
--- <Remove [] | Add [<Observer Ward>, <[]>, <0>] | Improve 0> 
--- <Remove [] | Add [<Slippers of Agility>, <[{u'Name': u'Agility', u'Value': u'+3'}]>, <0>] | Improve 0> 
--- <Remove [] | Add [<Recipe: Linken's Sphere>, <None>, <0>] | Improve 0> 
--- <Remove [] | Add [<Flying Courier>, <[]>, <0>] | Improve 0> 
--- <Remove [<Flying Courier>, <[]>, <0>] | Add [<Gauntlets of Strength>, <[{u'Name': u'Strength', u'Value': u'+3'}]>, <3>] | Improve 3> 
--- <Remove [] | Add [<Flying Courier>, <[]>, <0>] | Improve 0> 
--- <Remove [] | Add [<Recipe: Necronomicon>, <None>, <0>] | Improve 0> 
--- <Remove [] | Add [<Recipe: Soul Booster>, <None>, <0>] | Improve 0> 
--- <Remove [] | Add [<Recipe: Vanguard>, <None>, <0>] | Improve 0> 
--- <Remove [] | Add [<Recipe: Scythe of Vyse>, <None>, <0>] | Improve 0> 
--- <Remove [] | Add [<Recipe: Ring of Basilius>, <None>, <0>] | Improve 0> 
--- <Remove [] | Add [<Recipe: Refresher Orb>, <None>, <0>] | Improve 0> 
--- <Remove [] | Add [<Recipe: Pipe of Insight>, <None>, <0>] | Improve 0> 
--- <Remove [] | Add [<Recipe: Perseverance>, <None>, <0>] | Improve 0> 
--- <Remove [] | Add [<Recipe: Boots of Travel>, <None>, <0>] | Improve 0> 
--- <Remove [] | Add [<Recipe: Perseverance>, <None>, <0>] | Improve 0> 
--- <Remove [] | Add [<Recipe: Refresher Orb>, <None>, <0>] | Improve 0> 
--- <Remove [] | Add [<Town Portal Scroll>, <[]>, <0>] | Improve 0> 
--- <Remove [] | Add [<Recipe: Hood of Defiance>, <None>, <0>] | Improve 0> 
--- <Remove [] | Add [<Recipe: Blade Mail>, <None>, <0>] | Improve 0> 
--- <Remove [] | Add [<Town Portal Scroll>, <[]>, <0>] | Improve 0> 
--- <Remove [] | Add [<Recipe: Vladmir's Offering>, <None>, <0>] | Improve 0> 
--- <Remove [] | Add [<Recipe: Assault Cuirass>, <None>, <0>] | Improve 0> 
--- <Remove [] | Add [<Recipe: Vladmir's Offering>, <None>, <0>] | Improve 0> 
--- <Remove [] | Add [<Belt of Strength>, <[{u'Name': u'Strength', u'Value': u'+6'}]>, <6>] | Improve 6> 
--- <Remove [] | Add [<Urn of Shadows>, <[{u'Name': u'Mana Regeneration', u'Value': u'+50%'}, {u'Name': u'Strength', u'Value': u'+6'}, {u'Name': u'URN HEAL:', u'Value': u'400'}, {u'Name': u'DURATION:', u'Value': u'8'}, {u'Name': u'URN DAMAGE:', u'Value': u'150'}]>, <6>] | Improve 6> 
--- <Remove [<Urn of Shadows>, <[{u'Name': u'Mana Regeneration', u'Value': u'+50%'}, {u'Name': u'Strength', u'Value': u'+6'}, {u'Name': u'URN HEAL:', u'Value': u'400'}, {u'Name': u'DURATION:', u'Value': u'8'}, {u'Name': u'URN DAMAGE:', u'Value': u'150'}]>, <6>] | Add [<Ogre Club>, <[{u'Name': u'Strength', u'Value': u'+10'}]>, <10>] | Improve 4> 
--- <Remove [] | Add [<Recipe: Wraith Band>, <None>, <0>] | Improve 0> 
--- <Remove [] | Add [<Recipe: Hood of Defiance>, <None>, <0>] | Improve 0> 
--- <Remove [] | Add [<Dust of Appearance>, <[{u'Name': u'DURATION:', u'Value': u'12'}, {u'Name': u'RADIUS:', u'Value': u'1050'}]>, <0>] | Improve 0> 
--- <Remove [] | Add [<Belt of Strength>, <[{u'Name': u'Strength', u'Value': u'+6'}]>, <6>] | Improve 6> 
--- <Remove [] | Add [<Bracer>, <[{u'Name': u'Strength', u'Value': u'+6'}, {u'Name': u'Agility', u'Value': u'+3'}, {u'Name': u'Intelligence', u'Value': u'+3'}, {u'Name': u'Damage', u'Value': u'+3'}]>, <6>] | Improve 6> 
--- <Remove [] | Add [<Bracer>, <[{u'Name': u'Strength', u'Value': u'+6'}, {u'Name': u'Agility', u'Value': u'+3'}, {u'Name': u'Intelligence', u'Value': u'+3'}, {u'Name': u'Damage', u'Value': u'+3'}]>, <6>] | Improve 6> 
--- <Remove [] | Add [<Belt of Strength>, <[{u'Name': u'Strength', u'Value': u'+6'}]>, <6>] | Improve 6> 
--- <Remove [] | Add [<Urn of Shadows>, <[{u'Name': u'Mana Regeneration', u'Value': u'+50%'}, {u'Name': u'Strength', u'Value': u'+6'}, {u'Name': u'URN HEAL:', u'Value': u'400'}, {u'Name': u'DURATION:', u'Value': u'8'}, {u'Name': u'URN DAMAGE:', u'Value': u'150'}]>, <6>] | Improve 6> 
--- <Remove [] | Add [<Magic Wand>, <[{u'Name': u'All Attributes', u'Value': u'+3'}, {u'Name': u'RESTORE PER CHARGE:', u'Value': u'15'}]>, <3>] | Improve 3> 
--- <Remove [<Magic Wand>, <[{u'Name': u'All Attributes', u'Value': u'+3'}, {u'Name': u'RESTORE PER CHARGE:', u'Value': u'15'}]>, <3>] | Add [<Ogre Club>, <[{u'Name': u'Strength', u'Value': u'+10'}]>, <10>] | Improve 7> 
--- <Remove [] | Add [<Recipe: Urn of Shadows>, <None>, <0>] | Improve 0> 
--- <Remove [<Recipe: Urn of Shadows>, <None>, <0>] | Add [<Gauntlets of Strength>, <[{u'Name': u'Strength', u'Value': u'+3'}]>, <3>] | Improve 3> 
--- <Remove [] | Add [<Iron Branch>, <[{u'Name': u'All Attributes', u'Value': u'+1'}]>, <1>] | Improve 1> 
--- <Remove [] | Add [<Recipe: Shiva's Guard>, <None>, <0>] | Improve 0> 
--- <Remove [] | Add [<Recipe: Assault Cuirass>, <None>, <0>] | Improve 0> 
--- <Remove [] | Add [<Recipe: Aghanim's Scepter>, <None>, <0>] | Improve 0> 
--- <Remove [] | Add [<Recipe: Aghanim's Scepter>, <None>, <0>] | Improve 0> 
--- <Remove [] | Add [<Animal Courier>, <[]>, <0>] | Improve 0> 
--- <Remove [] | Add [<Recipe: Heart of Tarrasque>, <None>, <0>] | Improve 0> 
--- <Remove [] | Add [<Ring of Protection>, <[{u'Name': u'Armor', u'Value': u'+2'}]>, <0>] | Improve 0> 
--- <Remove [] | Add [<Recipe: Oblivion Staff>, <None>, <0>] | Improve 0> 
--- <Remove [] | Add [<Ring of Protection>, <[{u'Name': u'Armor', u'Value': u'+2'}]>, <0>] | Improve 0> 
--- <Remove [] | Add [<Recipe: Shiva's Guard>, <None>, <0>] | Improve 0> 
--- <Remove [] | Add [<Recipe: Scythe of Vyse>, <None>, <0>] | Improve 0> 
--- <Remove [] | Add [<Recipe: Bloodstone>, <None>, <0>] | Improve 0> 
--- <Remove [] | Add [<Dust of Appearance>, <[{u'Name': u'DURATION:', u'Value': u'12'}, {u'Name': u'RADIUS:', u'Value': u'1050'}]>, <0>] | Improve 0> 
--- <Remove [] | Add [<Recipe: Null Talisman>, <None>, <0>] | Improve 0> 
--- <Remove [] | Add [<Recipe: Power Treads>, <None>, <0>] | Improve 0> 
--- <Remove [] | Add [<Animal Courier>, <[]>, <0>] | Improve 0> 
--- <Remove [] | Add [<Recipe: Perseverance>, <None>, <0>] | Improve 0> 
--- <Remove [<Recipe: Perseverance>, <None>, <0>] | Add [<Gauntlets of Strength>, <[{u'Name': u'Strength', u'Value': u'+3'}]>, <3>] | Improve 3> 
--- <Remove [] | Add [<Aegis of the Immortal>, <[]>, <0>] | Improve 0> 
--- <Remove [] | Add [<Recipe: Urn of Shadows>, <None>, <0>] | Improve 0> 
--- <Remove [] | Add [<Recipe: Blade Mail>, <None>, <0>] | Improve 0> 
--- <Remove [] | Add [<Recipe: Linken's Sphere>, <None>, <0>] | Improve 0> 
--- <Remove [] | Add [<Quelling Blade>, <[{u'Name': u'MELEE BONUS:', u'Value': u'32%'}, {u'Name': u'RANGED BONUS:', u'Value': u'12%'}]>, <0>] | Improve 0> 
--- <Remove [] | Add [<Aegis of the Immortal>, <[]>, <0>] | Improve 0> 
--- <Remove [] | Add [<Recipe: Headdress>, <None>, <0>] | Improve 0> 
--- <Remove [] | Add [<Recipe: Bloodstone>, <None>, <0>] | Improve 0> 
--- <Remove [] | Add [<Mantle of Intelligence>, <[{u'Name': u'Intelligence', u'Value': u'+3'}]>, <0>] | Improve 0> 
--- <Remove [] | Add [<Tango>, <[{u'Name': u'DURATION:', u'Value': u'16'}, {u'Name': u'HEALTH RESTORED:', u'Value': u'115'}]>, <0>] | Improve 0> 
--- <Remove [] | Add [<Recipe: Phase Boots>, <None>, <0>] | Improve 0> 
--- <Remove [] | Add [<Magic Stick>, <[{u'Name': u'RESTORE PER CHARGE:', u'Value': u'15'}]>, <0>] | Improve 0> 
--- <Remove [] | Add [<Ring of Protection>, <[{u'Name': u'Armor', u'Value': u'+2'}]>, <0>] | Improve 0> 
--- <Remove [] | Add [<Recipe: Vanguard>, <None>, <0>] | Improve 0> 
--- <Remove [] | Add [<Recipe: Orchid>, <None>, <0>] | Improve 0> 
--- <Remove [] | Add [<Recipe: Force Staff>, <None>, <0>] | Improve 0> 
--- <Remove [] | Add [<Gauntlets of Strength>, <[{u'Name': u'Strength', u'Value': u'+3'}]>, <3>] | Improve 3> 
--- <Remove [] | Add [<Mantle of Intelligence>, <[{u'Name': u'Intelligence', u'Value': u'+3'}]>, <0>] | Improve 0> 
--- <Remove [] | Add [<Gauntlets of Strength>, <[{u'Name': u'Strength', u'Value': u'+3'}]>, <3>] | Improve 3> 
--- <Remove [] | Add [<Circlet>, <[{u'Name': u'All Attributes', u'Value': u'+2'}]>, <2>] | Improve 2> 
--- <Remove [] | Add [<Circlet>, <[{u'Name': u'All Attributes', u'Value': u'+2'}]>, <2>] | Improve 2> 
--- <Remove [] | Add [<Circlet>, <[{u'Name': u'All Attributes', u'Value': u'+2'}]>, <2>] | Improve 2> 
--- <Remove [] | Add [<Healing Salve>, <[{u'Name': u'DURATION:', u'Value': u'10'}, {u'Name': u'HEALTH RESTORED:', u'Value': u'400'}]>, <0>] | Improve 0> 
--- <Remove [] | Add [<Iron Branch>, <[{u'Name': u'All Attributes', u'Value': u'+1'}]>, <1>] | Improve 1> 
--- <Remove [] | Add [<Iron Branch>, <[{u'Name': u'All Attributes', u'Value': u'+1'}]>, <1>] | Improve 1> 
--- <Remove [] | Add [<Gauntlets of Strength>, <[{u'Name': u'Strength', u'Value': u'+3'}]>, <3>] | Improve 3> 
Initial fitness: 0
Final fitness: 91
Total improvement: 91
Weight left: 2
Initial Gold: 10000
Gold left: 300
Number of items in solution: 4
List of items:
--- <Reaver>, <[{u'Name': u'Strength', u'Value': u'+25'}]>, <25>
--- <Heart of Tarrasque>, <[{u'Name': u'Strength', u'Value': u'+40'}, {u'Name': u'Health', u'Value': u'+300'}, {u'Name': u'HEALTH RESTORED:', u'Value': u'2%'}]>, <40>
--- <Ogre Club>, <[{u'Name': u'Strength', u'Value': u'+10'}]>, <10>
--- <Iron Branch>, <[{u'Name': u'All Attributes', u'Value': u'+1'}]>, <1>
Ran in 18959.878000 milliseconds.
Better solution found in 221 with 101
Script ran with tabu search using a max of 300 iterations and a tabu list with size 200.
Ended by iteration limit.
Best solution found with 112 move(s).
Initial solution was: [<Energy Booster>, <[{u'Name': u'Mana', u'Value': u'+250'}]>, <0>, <Bottle>, <[{u'Name': u'HEALTH RESTORED:', u'Value': u'135'}, {u'Name': u'MANA RESTORED:', u'Value': u'70'}, {u'Name': u'DURATION:', u'Value': u'3'}]>, <0>, <Recipe: Urn of Shadows>, <None>, <0>, <Recipe: Shiva's Guard>, <None>, <0>, <Eaglesong>, <[{u'Name': u'Agility', u'Value': u'+25'}]>, <0>, <Quarterstaff>, <[{u'Name': u'Damage', u'Value': u'+10'}, {u'Name': u'Attack Speed', u'Value': u'+10'}]>, <0>]
Movements made: 
--- <Remove [<Energy Booster>, <[{u'Name': u'Mana', u'Value': u'+250'}]>, <0>] | Add [<Heart of Tarrasque>, <[{u'Name': u'Strength', u'Value': u'+40'}, {u'Name': u'Health', u'Value': u'+300'}, {u'Name': u'HEALTH RESTORED:', u'Value': u'2%'}]>, <40>] | Improve 40> 
--- <Remove [<Quarterstaff>, <[{u'Name': u'Damage', u'Value': u'+10'}, {u'Name': u'Attack Speed', u'Value': u'+10'}]>, <0>] | Add [<Reaver>, <[{u'Name': u'Strength', u'Value': u'+25'}]>, <25>] | Improve 25> 
--- <Remove [<Eaglesong>, <[{u'Name': u'Agility', u'Value': u'+25'}]>, <0>] | Add [<Linken's Sphere>, <[{u'Name': u'All Attributes', u'Value': u'+15'}, {u'Name': u'HP Regeneration', u'Value': u'+6'}, {u'Name': u'Mana Regeneration', u'Value': u'+150%'}, {u'Name': u'Damage', u'Value': u'+10'}]>, <15>] | Improve 15> 
--- <Remove [<Bottle>, <[{u'Name': u'HEALTH RESTORED:', u'Value': u'135'}, {u'Name': u'MANA RESTORED:', u'Value': u'70'}, {u'Name': u'DURATION:', u'Value': u'3'}]>, <0>] | Add [<Ogre Club>, <[{u'Name': u'Strength', u'Value': u'+10'}]>, <10>] | Improve 10> 
--- <Remove [] | Add [<Iron Branch>, <[{u'Name': u'All Attributes', u'Value': u'+1'}]>, <1>] | Improve 1> 
--- <Remove [] | Add [<Iron Branch>, <[{u'Name': u'All Attributes', u'Value': u'+1'}]>, <1>] | Improve 1> 
--- <Remove [] | Add [<Iron Branch>, <[{u'Name': u'All Attributes', u'Value': u'+1'}]>, <1>] | Improve 1> 
--- <Remove [] | Add [<Iron Branch>, <[{u'Name': u'All Attributes', u'Value': u'+1'}]>, <1>] | Improve 1> 
--- <Remove [] | Add [<Recipe: Assault Cuirass>, <None>, <0>] | Improve 0> 
--- <Remove [] | Add [<Recipe: Perseverance>, <None>, <0>] | Improve 0> 
--- <Remove [] | Add [<Recipe: Pipe of Insight>, <None>, <0>] | Improve 0> 
--- <Remove [] | Add [<Recipe: Refresher Orb>, <None>, <0>] | Improve 0> 
--- <Remove [] | Add [<Recipe: Bloodstone>, <None>, <0>] | Improve 0> 
--- <Remove [] | Add [<Recipe: Black King Bar>, <None>, <0>] | Improve 0> 
--- <Remove [] | Add [<Recipe: Black King Bar>, <None>, <0>] | Improve 0> 
--- <Remove [] | Add [<Recipe: Assault Cuirass>, <None>, <0>] | Improve 0> 
--- <Remove [] | Add [<Recipe: Perseverance>, <None>, <0>] | Improve 0> 
--- <Remove [] | Add [<Recipe: Buckler>, <None>, <0>] | Improve 0> 
--- <Remove [] | Add [<Recipe: Boots of Travel>, <None>, <0>] | Improve 0> 
--- <Remove [] | Add [<Recipe: Dagon>, <None>, <0>] | Improve 0> 
--- <Remove [] | Add [<Recipe: Oblivion Staff>, <None>, <0>] | Improve 0> 
--- <Remove [] | Add [<Recipe: Orchid>, <None>, <0>] | Improve 0> 
--- <Remove [] | Add [<Ogre Club>, <[{u'Name': u'Strength', u'Value': u'+10'}]>, <10>] | Improve 10> 
--- <Remove [] | Add [<Recipe: Wraith Band>, <None>, <0>] | Improve 0> 
--- <Remove [] | Add [<Recipe: Hand of Midas>, <None>, <0>] | Improve 0> 
--- <Remove [] | Add [<Recipe: Vanguard>, <None>, <0>] | Improve 0> 
--- <Remove [] | Add [<Recipe: Bracer>, <None>, <0>] | Improve 0> 
--- <Remove [] | Add [<Recipe: Assault Cuirass>, <None>, <0>] | Improve 0> 
--- <Remove [] | Add [<Recipe: Soul Booster>, <None>, <0>] | Improve 0> 
--- <Remove [] | Add [<Recipe: Aghanim's Scepter>, <None>, <0>] | Improve 0> 
--- <Remove [] | Add [<Recipe: Heart of Tarrasque>, <None>, <0>] | Improve 0> 
--- <Remove [] | Add [<Recipe: Force Staff>, <None>, <0>] | Improve 0> 
--- <Remove [] | Add [<Tango>, <[{u'Name': u'DURATION:', u'Value': u'16'}, {u'Name': u'HEALTH RESTORED:', u'Value': u'115'}]>, <0>] | Improve 0> 
--- <Remove [] | Add [<Recipe: Force Staff>, <None>, <0>] | Improve 0> 
--- <Remove [] | Add [<Recipe: Vladmir's Offering>, <None>, <0>] | Improve 0> 
--- <Remove [] | Add [<Aegis of the Immortal>, <[]>, <0>] | Improve 0> 
--- <Remove [] | Add [<Recipe: Shiva's Guard>, <None>, <0>] | Improve 0> 
--- <Remove [] | Add [<Recipe: Heart of Tarrasque>, <None>, <0>] | Improve 0> 
--- <Remove [] | Add [<Recipe: Buckler>, <None>, <0>] | Improve 0> 
--- <Remove [] | Add [<Recipe: Urn of Shadows>, <None>, <0>] | Improve 0> 
--- <Remove [] | Add [<Recipe: Heart of Tarrasque>, <None>, <0>] | Improve 0> 
--- <Remove [] | Add [<Recipe: Scythe of Vyse>, <None>, <0>] | Improve 0> 
--- <Remove [] | Add [<Recipe: Boots of Travel>, <None>, <0>] | Improve 0> 
--- <Remove [] | Add [<Recipe: Blade Mail>, <None>, <0>] | Improve 0> 
--- <Remove [] | Add [<Healing Salve>, <[{u'Name': u'DURATION:', u'Value': u'10'}, {u'Name': u'HEALTH RESTORED:', u'Value': u'400'}]>, <0>] | Improve 0> 
--- <Remove [] | Add [<Recipe: Eul's Scepter of Divinity>, <None>, <0>] | Improve 0> 
--- <Remove [] | Add [<Recipe: Dagon>, <None>, <0>] | Improve 0> 
--- <Remove [] | Add [<Recipe: Heart of Tarrasque>, <None>, <0>] | Improve 0> 
--- <Remove [] | Add [<Recipe: Pipe of Insight>, <None>, <0>] | Improve 0> 
--- <Remove [] | Add [<Recipe: Phase Boots>, <None>, <0>] | Improve 0> 
--- <Remove [] | Add [<Recipe: Boots of Travel>, <None>, <0>] | Improve 0> 
--- <Remove [] | Add [<Tango>, <[{u'Name': u'DURATION:', u'Value': u'16'}, {u'Name': u'HEALTH RESTORED:', u'Value': u'115'}]>, <0>] | Improve 0> 
--- <Remove [] | Add [<Recipe: Buckler>, <None>, <0>] | Improve 0> 
--- <Remove [] | Add [<Tango>, <[{u'Name': u'DURATION:', u'Value': u'16'}, {u'Name': u'HEALTH RESTORED:', u'Value': u'115'}]>, <0>] | Improve 0> 
--- <Remove [] | Add [<Recipe: Linken's Sphere>, <None>, <0>] | Improve 0> 
--- <Remove [] | Add [<Recipe: Eul's Scepter of Divinity>, <None>, <0>] | Improve 0> 
--- <Remove [] | Add [<Recipe: Hood of Defiance>, <None>, <0>] | Improve 0> 
--- <Remove [] | Add [<Recipe: Ring of Basilius>, <None>, <0>] | Improve 0> 
--- <Remove [] | Add [<Recipe: Boots of Travel>, <None>, <0>] | Improve 0> 
--- <Remove [] | Add [<Recipe: Linken's Sphere>, <None>, <0>] | Improve 0> 
--- <Remove [] | Add [<Recipe: Necronomicon>, <None>, <0>] | Improve 0> 
--- <Remove [] | Add [<Recipe: Null Talisman>, <None>, <0>] | Improve 0> 
--- <Remove [] | Add [<Healing Salve>, <[{u'Name': u'DURATION:', u'Value': u'10'}, {u'Name': u'HEALTH RESTORED:', u'Value': u'400'}]>, <0>] | Improve 0> 
--- <Remove [] | Add [<Recipe: Scythe of Vyse>, <None>, <0>] | Improve 0> 
--- <Remove [] | Add [<Recipe: Refresher Orb>, <None>, <0>] | Improve 0> 
--- <Remove [] | Add [<Recipe: Force Staff>, <None>, <0>] | Improve 0> 
--- <Remove [] | Add [<Recipe: Assault Cuirass>, <None>, <0>] | Improve 0> 
--- <Remove [] | Add [<Recipe: Aghanim's Scepter>, <None>, <0>] | Improve 0> 
--- <Remove [] | Add [<Recipe: Black King Bar>, <None>, <0>] | Improve 0> 
--- <Remove [] | Add [<Iron Branch>, <[{u'Name': u'All Attributes', u'Value': u'+1'}]>, <1>] | Improve 1> 
--- <Remove [] | Add [<Recipe: Power Treads>, <None>, <0>] | Improve 0> 
--- <Remove [] | Add [<Recipe: Headdress>, <None>, <0>] | Improve 0> 
--- <Remove [] | Add [<Recipe: Magic Wand>, <None>, <0>] | Improve 0> 
--- <Remove [] | Add [<Recipe: Orchid>, <None>, <0>] | Improve 0> 
--- <Remove [] | Add [<Clarity>, <[{u'Name': u'DURATION:', u'Value': u'30'}, {u'Name': u'MANA RESTORED:', u'Value': u'100'}]>, <0>] | Improve 0> 
--- <Remove [] | Add [<Recipe: Orchid>, <None>, <0>] | Improve 0> 
--- <Remove [] | Add [<Recipe: Eul's Scepter of Divinity>, <None>, <0>] | Improve 0> 
--- <Remove [] | Add [<Recipe: Magic Wand>, <None>, <0>] | Improve 0> 
--- <Remove [] | Add [<Recipe: Linken's Sphere>, <None>, <0>] | Improve 0> 
--- <Remove [] | Add [<Recipe: Blade Mail>, <None>, <0>] | Improve 0> 
--- <Remove [] | Add [<Recipe: Shiva's Guard>, <None>, <0>] | Improve 0> 
--- <Remove [] | Add [<Recipe: Poor Man's Shield>, <None>, <0>] | Improve 0> 
--- <Remove [] | Add [<Recipe: Force Staff>, <None>, <0>] | Improve 0> 
--- <Remove [] | Add [<Healing Salve>, <[{u'Name': u'DURATION:', u'Value': u'10'}, {u'Name': u'HEALTH RESTORED:', u'Value': u'400'}]>, <0>] | Improve 0> 
--- <Remove [] | Add [<Recipe: Blade Mail>, <None>, <0>] | Improve 0> 
--- <Remove [] | Add [<Recipe: Magic Wand>, <None>, <0>] | Improve 0> 
--- <Remove [] | Add [<Recipe: Headdress>, <None>, <0>] | Improve 0> 
--- <Remove [] | Add [<Recipe: Vanguard>, <None>, <0>] | Improve 0> 
--- <Remove [] | Add [<Recipe: Vladmir's Offering>, <None>, <0>] | Improve 0> 
--- <Remove [] | Add [<Recipe: Bloodstone>, <None>, <0>] | Improve 0> 
--- <Remove [] | Add [<Recipe: Linken's Sphere>, <None>, <0>] | Improve 0> 
--- <Remove [] | Add [<Recipe: Bracer>, <None>, <0>] | Improve 0> 
--- <Remove [] | Add [<Recipe: Bloodstone>, <None>, <0>] | Improve 0> 
--- <Remove [] | Add [<Recipe: Urn of Shadows>, <None>, <0>] | Improve 0> 
--- <Remove [] | Add [<Ogre Club>, <[{u'Name': u'Strength', u'Value': u'+10'}]>, <10>] | Improve 10> 
--- <Remove [] | Add [<Healing Salve>, <[{u'Name': u'DURATION:', u'Value': u'10'}, {u'Name': u'HEALTH RESTORED:', u'Value': u'400'}]>, <0>] | Improve 0> 
--- <Remove [] | Add [<Recipe: Dagon>, <None>, <0>] | Improve 0> 
--- <Remove [] | Add [<Recipe: Wraith Band>, <None>, <0>] | Improve 0> 
--- <Remove [] | Add [<Recipe: Refresher Orb>, <None>, <0>] | Improve 0> 
--- <Remove [] | Add [<Recipe: Bloodstone>, <None>, <0>] | Improve 0> 
--- <Remove [] | Add [<Recipe: Necronomicon>, <None>, <0>] | Improve 0> 
--- <Remove [] | Add [<Recipe: Buckler>, <None>, <0>] | Improve 0> 
--- <Remove [] | Add [<Recipe: Hood of Defiance>, <None>, <0>] | Improve 0> 
--- <Remove [] | Add [<Recipe: Necronomicon>, <None>, <0>] | Improve 0> 
--- <Remove [] | Add [<Ogre Club>, <[{u'Name': u'Strength', u'Value': u'+10'}]>, <10>] | Improve 10> 
--- <Remove [] | Add [<Recipe: Dagon>, <None>, <0>] | Improve 0> 
--- <Remove [] | Add [<Iron Branch>, <[{u'Name': u'All Attributes', u'Value': u'+1'}]>, <1>] | Improve 1> 
--- <Remove [] | Add [<Iron Branch>, <[{u'Name': u'All Attributes', u'Value': u'+1'}]>, <1>] | Improve 1> 
--- <Remove [] | Add [<Iron Branch>, <[{u'Name': u'All Attributes', u'Value': u'+1'}]>, <1>] | Improve 1> 
--- <Remove [] | Add [<Recipe: Scythe of Vyse>, <None>, <0>] | Improve 0> 
--- <Remove [] | Add [<Recipe: Black King Bar>, <None>, <0>] | Improve 0> 
--- <Remove [] | Add [<Iron Branch>, <[{u'Name': u'All Attributes', u'Value': u'+1'}]>, <1>] | Improve 1> 
Initial fitness: 0
Final fitness: 101
Total improvement: 101
Weight left: 2
Initial Gold: 15000
Gold left: 125
Number of items in solution: 5
List of items:
--- <Ogre Club>, <[{u'Name': u'Strength', u'Value': u'+10'}]>, <10>
--- <Linken's Sphere>, <[{u'Name': u'All Attributes', u'Value': u'+15'}, {u'Name': u'HP Regeneration', u'Value': u'+6'}, {u'Name': u'Mana Regeneration', u'Value': u'+150%'}, {u'Name': u'Damage', u'Value': u'+10'}]>, <15>
--- <Heart of Tarrasque>, <[{u'Name': u'Strength', u'Value': u'+40'}, {u'Name': u'Health', u'Value': u'+300'}, {u'Name': u'HEALTH RESTORED:', u'Value': u'2%'}]>, <40>
--- <Iron Branch>, <[{u'Name': u'All Attributes', u'Value': u'+1'}]>, <1>
--- <Reaver>, <[{u'Name': u'Strength', u'Value': u'+25'}]>, <25>
Ran in 22756.008000 milliseconds.
Better solution found in 8 with 110
Script ran with tabu search using a max of 300 iterations and a tabu list with size 200.
Ended by iteration limit.
Best solution found with 5 move(s).
Initial solution was: [<Recipe: Pipe of Insight>, <None>, <0>, <Ring of Basilius>, <[{u'Name': u'Damage', u'Value': u'+6'}, {u'Name': u'AURA MANA REGEN:', u'Value': u'0.65'}, {u'Name': u'AURA BONUS ARMOR:', u'Value': u'2'}, {u'Name': u'Armor', u'Value': u'+1'}]>, <0>, <Boots of Speed>, <[{u'Name': u'Movement Speed', u'Value': u'+50'}]>, <0>, <Ghost Scepter>, <[{u'Name': u'All Attributes', u'Value': u'+7'}, {u'Name': u'GHOST DURATION:', u'Value': u'4'}]>, <7>, <Heart of Tarrasque>, <[{u'Name': u'Strength', u'Value': u'+40'}, {u'Name': u'Health', u'Value': u'+300'}, {u'Name': u'HEALTH RESTORED:', u'Value': u'2%'}]>, <40>, <Dagon>, <[{u'Name': u'', u'Value': u'+'}, {u'Name': u'All Attributes', u'Value': u'+3'}, {u'Name': u'Damage', u'Value': u'+9'}, {u'Name': u'BURST DAMAGE:', u'Value': u'400'}]>, <3>]
Movements made: 
--- <Remove [<Boots of Speed>, <[{u'Name': u'Movement Speed', u'Value': u'+50'}]>, <0>] | Add [<Reaver>, <[{u'Name': u'Strength', u'Value': u'+25'}]>, <25>] | Improve 25> 
--- <Remove [<Ring of Basilius>, <[{u'Name': u'Damage', u'Value': u'+6'}, {u'Name': u'AURA MANA REGEN:', u'Value': u'0.65'}, {u'Name': u'AURA BONUS ARMOR:', u'Value': u'2'}, {u'Name': u'Armor', u'Value': u'+1'}]>, <0>] | Add [<Linken's Sphere>, <[{u'Name': u'All Attributes', u'Value': u'+15'}, {u'Name': u'HP Regeneration', u'Value': u'+6'}, {u'Name': u'Mana Regeneration', u'Value': u'+150%'}, {u'Name': u'Damage', u'Value': u'+10'}]>, <15>] | Improve 15> 
--- <Remove [] | Add [<Ogre Club>, <[{u'Name': u'Strength', u'Value': u'+10'}]>, <10>] | Improve 10> 
--- <Remove [<Dagon>, <[{u'Name': u'', u'Value': u'+'}, {u'Name': u'All Attributes', u'Value': u'+3'}, {u'Name': u'Damage', u'Value': u'+9'}, {u'Name': u'BURST DAMAGE:', u'Value': u'400'}]>, <3>] | Add [<Ultimate Orb>, <[{u'Name': u'All Attributes', u'Value': u'+10'}]>, <10>] | Improve 7> 
--- <Remove [] | Add [<Ogre Club>, <[{u'Name': u'Strength', u'Value': u'+10'}]>, <10>] | Improve 10> 
Initial fitness: 50
Final fitness: 110
Total improvement: 60
Weight left: 0
Initial Gold: 20000
Gold left: 775
Number of items in solution: 5
List of items:
--- <Linken's Sphere>, <[{u'Name': u'All Attributes', u'Value': u'+15'}, {u'Name': u'HP Regeneration', u'Value': u'+6'}, {u'Name': u'Mana Regeneration', u'Value': u'+150%'}, {u'Name': u'Damage', u'Value': u'+10'}]>, <15>
--- <Reaver>, <[{u'Name': u'Strength', u'Value': u'+25'}]>, <25>
--- <Heart of Tarrasque>, <[{u'Name': u'Strength', u'Value': u'+40'}, {u'Name': u'Health', u'Value': u'+300'}, {u'Name': u'HEALTH RESTORED:', u'Value': u'2%'}]>, <40>
--- <Ultimate Orb>, <[{u'Name': u'All Attributes', u'Value': u'+10'}]>, <10>
--- <Ogre Club>, <[{u'Name': u'Strength', u'Value': u'+10'}]>, <10>
Ran in 22409.495000 milliseconds.
Better solution found in 6 with 110
Script ran with tabu search using a max of 300 iterations and a tabu list with size 200.
Ended by iteration limit.
Best solution found with 6 move(s).
Initial solution was: [<Pipe of Insight>, <[{u'Name': u'HP Regeneration', u'Value': u'+11'}, {u'Name': u'Spell Resistance', u'Value': u'+30%'}]>, <0>, <Perseverance>, <[{u'Name': u'Damage', u'Value': u'+10'}, {u'Name': u'HP Regeneration', u'Value': u'+5'}, {u'Name': u'Mana Regeneration', u'Value': u'+125%'}]>, <0>, <Quarterstaff>, <[{u'Name': u'Damage', u'Value': u'+10'}, {u'Name': u'Attack Speed', u'Value': u'+10'}]>, <0>, <Helm of Iron Will>, <[{u'Name': u'Armor', u'Value': u'+5'}, {u'Name': u'HP Regeneration', u'Value': u'+3'}]>, <0>, <Ring of Basilius>, <[{u'Name': u'Damage', u'Value': u'+6'}, {u'Name': u'AURA MANA REGEN:', u'Value': u'0.65'}, {u'Name': u'AURA BONUS ARMOR:', u'Value': u'2'}, {u'Name': u'Armor', u'Value': u'+1'}]>, <0>, <Javelin>, <[{u'Name': u'Damage', u'Value': u'+21'}, {u'Name': u'CHANCE TO PIERCE:', u'Value': u'20%'}, {u'Name': u'PIERCE DAMAGE:', u'Value': u'40'}]>, <0>]
Movements made: 
--- <Remove [<Quarterstaff>, <[{u'Name': u'Damage', u'Value': u'+10'}, {u'Name': u'Attack Speed', u'Value': u'+10'}]>, <0>] | Add [<Heart of Tarrasque>, <[{u'Name': u'Strength', u'Value': u'+40'}, {u'Name': u'Health', u'Value': u'+300'}, {u'Name': u'HEALTH RESTORED:', u'Value': u'2%'}]>, <40>] | Improve 40> 
--- <Remove [<Perseverance>, <[{u'Name': u'Damage', u'Value': u'+10'}, {u'Name': u'HP Regeneration', u'Value': u'+5'}, {u'Name': u'Mana Regeneration', u'Value': u'+125%'}]>, <0>] | Add [<Reaver>, <[{u'Name': u'Strength', u'Value': u'+25'}]>, <25>] | Improve 25> 
--- <Remove [<Helm of Iron Will>, <[{u'Name': u'Armor', u'Value': u'+5'}, {u'Name': u'HP Regeneration', u'Value': u'+3'}]>, <0>] | Add [<Linken's Sphere>, <[{u'Name': u'All Attributes', u'Value': u'+15'}, {u'Name': u'HP Regeneration', u'Value': u'+6'}, {u'Name': u'Mana Regeneration', u'Value': u'+150%'}, {u'Name': u'Damage', u'Value': u'+10'}]>, <15>] | Improve 15> 
--- <Remove [<Pipe of Insight>, <[{u'Name': u'HP Regeneration', u'Value': u'+11'}, {u'Name': u'Spell Resistance', u'Value': u'+30%'}]>, <0>] | Add [<Ogre Club>, <[{u'Name': u'Strength', u'Value': u'+10'}]>, <10>] | Improve 10> 
--- <Remove [<Javelin>, <[{u'Name': u'Damage', u'Value': u'+21'}, {u'Name': u'CHANCE TO PIERCE:', u'Value': u'20%'}, {u'Name': u'PIERCE DAMAGE:', u'Value': u'40'}]>, <0>] | Add [<Aghanim's Scepter>, <[{u'Name': u'All Attributes', u'Value': u'+10'}, {u'Name': u'Health', u'Value': u'+200'}, {u'Name': u'Mana', u'Value': u'+150'}]>, <10>] | Improve 10> 
--- <Remove [<Ring of Basilius>, <[{u'Name': u'Damage', u'Value': u'+6'}, {u'Name': u'AURA MANA REGEN:', u'Value': u'0.65'}, {u'Name': u'AURA BONUS ARMOR:', u'Value': u'2'}, {u'Name': u'Armor', u'Value': u'+1'}]>, <0>] | Add [<Ultimate Orb>, <[{u'Name': u'All Attributes', u'Value': u'+10'}]>, <10>] | Improve 10> 
Initial fitness: 0
Final fitness: 110
Total improvement: 110
Weight left: 0
Initial Gold: 25000
Gold left: 925
Number of items in solution: 6
List of items:
--- <Aghanim's Scepter>, <[{u'Name': u'All Attributes', u'Value': u'+10'}, {u'Name': u'Health', u'Value': u'+200'}, {u'Name': u'Mana', u'Value': u'+150'}]>, <10>
--- <Heart of Tarrasque>, <[{u'Name': u'Strength', u'Value': u'+40'}, {u'Name': u'Health', u'Value': u'+300'}, {u'Name': u'HEALTH RESTORED:', u'Value': u'2%'}]>, <40>
--- <Reaver>, <[{u'Name': u'Strength', u'Value': u'+25'}]>, <25>
--- <Ogre Club>, <[{u'Name': u'Strength', u'Value': u'+10'}]>, <10>
--- <Linken's Sphere>, <[{u'Name': u'All Attributes', u'Value': u'+15'}, {u'Name': u'HP Regeneration', u'Value': u'+6'}, {u'Name': u'Mana Regeneration', u'Value': u'+150%'}, {u'Name': u'Damage', u'Value': u'+10'}]>, <15>
--- <Ultimate Orb>, <[{u'Name': u'All Attributes', u'Value': u'+10'}]>, <10>
Ran in 23067.874000 milliseconds.
Better solution found in 4 with 110
Script ran with tabu search using a max of 300 iterations and a tabu list with size 200.
Ended by iteration limit.
Best solution found with 4 move(s).
Initial solution was: [<Recipe: Pipe of Insight>, <None>, <0>, <Recipe: Wraith Band>, <None>, <0>, <Recipe: Magic Wand>, <None>, <0>, <Aghanim's Scepter>, <[{u'Name': u'All Attributes', u'Value': u'+10'}, {u'Name': u'Health', u'Value': u'+200'}, {u'Name': u'Mana', u'Value': u'+150'}]>, <10>, <Ogre Club>, <[{u'Name': u'Strength', u'Value': u'+10'}]>, <10>, <Recipe: Black King Bar>, <None>, <0>]
Movements made: 
--- <Remove [<Recipe: Wraith Band>, <None>, <0>] | Add [<Heart of Tarrasque>, <[{u'Name': u'Strength', u'Value': u'+40'}, {u'Name': u'Health', u'Value': u'+300'}, {u'Name': u'HEALTH RESTORED:', u'Value': u'2%'}]>, <40>] | Improve 40> 
--- <Remove [<Recipe: Magic Wand>, <None>, <0>] | Add [<Reaver>, <[{u'Name': u'Strength', u'Value': u'+25'}]>, <25>] | Improve 25> 
--- <Remove [<Recipe: Black King Bar>, <None>, <0>] | Add [<Linken's Sphere>, <[{u'Name': u'All Attributes', u'Value': u'+15'}, {u'Name': u'HP Regeneration', u'Value': u'+6'}, {u'Name': u'Mana Regeneration', u'Value': u'+150%'}, {u'Name': u'Damage', u'Value': u'+10'}]>, <15>] | Improve 15> 
--- <Remove [<Recipe: Pipe of Insight>, <None>, <0>] | Add [<Ultimate Orb>, <[{u'Name': u'All Attributes', u'Value': u'+10'}]>, <10>] | Improve 10> 
Initial fitness: 20
Final fitness: 110
Total improvement: 90
Weight left: 0
Initial Gold: 30000
Gold left: 2350
Number of items in solution: 6
List of items:
--- <Reaver>, <[{u'Name': u'Strength', u'Value': u'+25'}]>, <25>
--- <Heart of Tarrasque>, <[{u'Name': u'Strength', u'Value': u'+40'}, {u'Name': u'Health', u'Value': u'+300'}, {u'Name': u'HEALTH RESTORED:', u'Value': u'2%'}]>, <40>
--- <Aghanim's Scepter>, <[{u'Name': u'All Attributes', u'Value': u'+10'}, {u'Name': u'Health', u'Value': u'+200'}, {u'Name': u'Mana', u'Value': u'+150'}]>, <10>
--- <Ogre Club>, <[{u'Name': u'Strength', u'Value': u'+10'}]>, <10>
--- <Linken's Sphere>, <[{u'Name': u'All Attributes', u'Value': u'+15'}, {u'Name': u'HP Regeneration', u'Value': u'+6'}, {u'Name': u'Mana Regeneration', u'Value': u'+150%'}, {u'Name': u'Damage', u'Value': u'+10'}]>, <15>
--- <Ultimate Orb>, <[{u'Name': u'All Attributes', u'Value': u'+10'}]>, <10>
Ran in 22774.730000 milliseconds.
Better solution found in 6 with 110
Script ran with tabu search using a max of 300 iterations and a tabu list with size 200.
Ended by iteration limit.
Best solution found with 6 move(s).
Initial solution was: [<Talisman of Evasion>, <[{u'Name': u'Evasion', u'Value': u'+25%'}]>, <0>, <Recipe: Null Talisman>, <None>, <0>, <Energy Booster>, <[{u'Name': u'Mana', u'Value': u'+250'}]>, <0>, <Bottle>, <[{u'Name': u'HEALTH RESTORED:', u'Value': u'135'}, {u'Name': u'MANA RESTORED:', u'Value': u'70'}, {u'Name': u'DURATION:', u'Value': u'3'}]>, <0>, <Headdress>, <[{u'Name': u'All Attributes', u'Value': u'+2'}, {u'Name': u'BONUS REGEN:', u'Value': u'3'}]>, <2>, <Demon Edge>, <[{u'Name': u'Damage', u'Value': u'+46'}]>, <0>]
Movements made: 
--- <Remove [<Demon Edge>, <[{u'Name': u'Damage', u'Value': u'+46'}]>, <0>] | Add [<Heart of Tarrasque>, <[{u'Name': u'Strength', u'Value': u'+40'}, {u'Name': u'Health', u'Value': u'+300'}, {u'Name': u'HEALTH RESTORED:', u'Value': u'2%'}]>, <40>] | Improve 40> 
--- <Remove [<Talisman of Evasion>, <[{u'Name': u'Evasion', u'Value': u'+25%'}]>, <0>] | Add [<Reaver>, <[{u'Name': u'Strength', u'Value': u'+25'}]>, <25>] | Improve 25> 
--- <Remove [<Bottle>, <[{u'Name': u'HEALTH RESTORED:', u'Value': u'135'}, {u'Name': u'MANA RESTORED:', u'Value': u'70'}, {u'Name': u'DURATION:', u'Value': u'3'}]>, <0>] | Add [<Linken's Sphere>, <[{u'Name': u'All Attributes', u'Value': u'+15'}, {u'Name': u'HP Regeneration', u'Value': u'+6'}, {u'Name': u'Mana Regeneration', u'Value': u'+150%'}, {u'Name': u'Damage', u'Value': u'+10'}]>, <15>] | Improve 15> 
--- <Remove [<Energy Booster>, <[{u'Name': u'Mana', u'Value': u'+250'}]>, <0>] | Add [<Aghanim's Scepter>, <[{u'Name': u'All Attributes', u'Value': u'+10'}, {u'Name': u'Health', u'Value': u'+200'}, {u'Name': u'Mana', u'Value': u'+150'}]>, <10>] | Improve 10> 
--- <Remove [<Recipe: Null Talisman>, <None>, <0>] | Add [<Scythe of Vyse>, <[{u'Name': u'Strength', u'Value': u'+10'}, {u'Name': u'Agility', u'Value': u'+10'}, {u'Name': u'Intelligence', u'Value': u'+35'}, {u'Name': u'Mana Regeneration', u'Value': u'+150%'}]>, <10>] | Improve 10> 
--- <Remove [<Headdress>, <[{u'Name': u'All Attributes', u'Value': u'+2'}, {u'Name': u'BONUS REGEN:', u'Value': u'3'}]>, <2>] | Add [<Ogre Club>, <[{u'Name': u'Strength', u'Value': u'+10'}]>, <10>] | Improve 8> 
Initial fitness: 2
Final fitness: 110
Total improvement: 108
Weight left: 0
Initial Gold: 35000
Gold left: 7350
Number of items in solution: 6
List of items:
--- <Aghanim's Scepter>, <[{u'Name': u'All Attributes', u'Value': u'+10'}, {u'Name': u'Health', u'Value': u'+200'}, {u'Name': u'Mana', u'Value': u'+150'}]>, <10>
--- <Heart of Tarrasque>, <[{u'Name': u'Strength', u'Value': u'+40'}, {u'Name': u'Health', u'Value': u'+300'}, {u'Name': u'HEALTH RESTORED:', u'Value': u'2%'}]>, <40>
--- <Reaver>, <[{u'Name': u'Strength', u'Value': u'+25'}]>, <25>
--- <Linken's Sphere>, <[{u'Name': u'All Attributes', u'Value': u'+15'}, {u'Name': u'HP Regeneration', u'Value': u'+6'}, {u'Name': u'Mana Regeneration', u'Value': u'+150%'}, {u'Name': u'Damage', u'Value': u'+10'}]>, <15>
--- <Scythe of Vyse>, <[{u'Name': u'Strength', u'Value': u'+10'}, {u'Name': u'Agility', u'Value': u'+10'}, {u'Name': u'Intelligence', u'Value': u'+35'}, {u'Name': u'Mana Regeneration', u'Value': u'+150%'}]>, <10>
--- <Ogre Club>, <[{u'Name': u'Strength', u'Value': u'+10'}]>, <10>
Ran in 22412.423000 milliseconds.
Better solution found in 6 with 110
Script ran with tabu search using a max of 300 iterations and a tabu list with size 200.
Ended by iteration limit.
Best solution found with 6 move(s).
Initial solution was: [<Assault Cuirass>, <[{u'Name': u'Attack Speed', u'Value': u'+35'}, {u'Name': u'Armor', u'Value': u'+10'}, {u'Name': u'AURA ATTACK SPEED:', u'Value': u'20'}, {u'Name': u'AURA BONUS ARMOR:', u'Value': u'5'}, {u'Name': u'ARMOR REDUCTION:', u'Value': u'5'}]>, <0>, <Tango>, <[{u'Name': u'DURATION:', u'Value': u'16'}, {u'Name': u'HEALTH RESTORED:', u'Value': u'115'}]>, <0>, <Vladmir's Offering>, <[{u'Name': u'AURA LIFESTEAL:', u'Value': u'16%'}, {u'Name': u'AURA BONUS DAMAGE:', u'Value': u'15%'}, {u'Name': u'AURA BONUS ARMOR:', u'Value': u'5'}, {u'Name': u'AURA MANA REGEN:', u'Value': u'0.8'}, {u'Name': u'HP Regeneration', u'Value': u'+2'}]>, <0>, <Talisman of Evasion>, <[{u'Name': u'Evasion', u'Value': u'+25%'}]>, <0>, <Recipe: Boots of Travel>, <None>, <0>, <Urn of Shadows>, <[{u'Name': u'Mana Regeneration', u'Value': u'+50%'}, {u'Name': u'Strength', u'Value': u'+6'}, {u'Name': u'URN HEAL:', u'Value': u'400'}, {u'Name': u'DURATION:', u'Value': u'8'}, {u'Name': u'URN DAMAGE:', u'Value': u'150'}]>, <6>]
Movements made: 
--- <Remove [<Assault Cuirass>, <[{u'Name': u'Attack Speed', u'Value': u'+35'}, {u'Name': u'Armor', u'Value': u'+10'}, {u'Name': u'AURA ATTACK SPEED:', u'Value': u'20'}, {u'Name': u'AURA BONUS ARMOR:', u'Value': u'5'}, {u'Name': u'ARMOR REDUCTION:', u'Value': u'5'}]>, <0>] | Add [<Heart of Tarrasque>, <[{u'Name': u'Strength', u'Value': u'+40'}, {u'Name': u'Health', u'Value': u'+300'}, {u'Name': u'HEALTH RESTORED:', u'Value': u'2%'}]>, <40>] | Improve 40> 
--- <Remove [<Recipe: Boots of Travel>, <None>, <0>] | Add [<Reaver>, <[{u'Name': u'Strength', u'Value': u'+25'}]>, <25>] | Improve 25> 
--- <Remove [<Tango>, <[{u'Name': u'DURATION:', u'Value': u'16'}, {u'Name': u'HEALTH RESTORED:', u'Value': u'115'}]>, <0>] | Add [<Linken's Sphere>, <[{u'Name': u'All Attributes', u'Value': u'+15'}, {u'Name': u'HP Regeneration', u'Value': u'+6'}, {u'Name': u'Mana Regeneration', u'Value': u'+150%'}, {u'Name': u'Damage', u'Value': u'+10'}]>, <15>] | Improve 15> 
--- <Remove [<Vladmir's Offering>, <[{u'Name': u'AURA LIFESTEAL:', u'Value': u'16%'}, {u'Name': u'AURA BONUS DAMAGE:', u'Value': u'15%'}, {u'Name': u'AURA BONUS ARMOR:', u'Value': u'5'}, {u'Name': u'AURA MANA REGEN:', u'Value': u'0.8'}, {u'Name': u'HP Regeneration', u'Value': u'+2'}]>, <0>] | Add [<Aghanim's Scepter>, <[{u'Name': u'All Attributes', u'Value': u'+10'}, {u'Name': u'Health', u'Value': u'+200'}, {u'Name': u'Mana', u'Value': u'+150'}]>, <10>] | Improve 10> 
--- <Remove [<Talisman of Evasion>, <[{u'Name': u'Evasion', u'Value': u'+25%'}]>, <0>] | Add [<Scythe of Vyse>, <[{u'Name': u'Strength', u'Value': u'+10'}, {u'Name': u'Agility', u'Value': u'+10'}, {u'Name': u'Intelligence', u'Value': u'+35'}, {u'Name': u'Mana Regeneration', u'Value': u'+150%'}]>, <10>] | Improve 10> 
--- <Remove [<Urn of Shadows>, <[{u'Name': u'Mana Regeneration', u'Value': u'+50%'}, {u'Name': u'Strength', u'Value': u'+6'}, {u'Name': u'URN HEAL:', u'Value': u'400'}, {u'Name': u'DURATION:', u'Value': u'8'}, {u'Name': u'URN DAMAGE:', u'Value': u'150'}]>, <6>] | Add [<Ultimate Orb>, <[{u'Name': u'All Attributes', u'Value': u'+10'}]>, <10>] | Improve 4> 
Initial fitness: 6
Final fitness: 110
Total improvement: 104
Weight left: 0
Initial Gold: 40000
Gold left: 15925
Number of items in solution: 6
List of items:
--- <Linken's Sphere>, <[{u'Name': u'All Attributes', u'Value': u'+15'}, {u'Name': u'HP Regeneration', u'Value': u'+6'}, {u'Name': u'Mana Regeneration', u'Value': u'+150%'}, {u'Name': u'Damage', u'Value': u'+10'}]>, <15>
--- <Aghanim's Scepter>, <[{u'Name': u'All Attributes', u'Value': u'+10'}, {u'Name': u'Health', u'Value': u'+200'}, {u'Name': u'Mana', u'Value': u'+150'}]>, <10>
--- <Heart of Tarrasque>, <[{u'Name': u'Strength', u'Value': u'+40'}, {u'Name': u'Health', u'Value': u'+300'}, {u'Name': u'HEALTH RESTORED:', u'Value': u'2%'}]>, <40>
--- <Scythe of Vyse>, <[{u'Name': u'Strength', u'Value': u'+10'}, {u'Name': u'Agility', u'Value': u'+10'}, {u'Name': u'Intelligence', u'Value': u'+35'}, {u'Name': u'Mana Regeneration', u'Value': u'+150%'}]>, <10>
--- <Reaver>, <[{u'Name': u'Strength', u'Value': u'+25'}]>, <25>
--- <Ultimate Orb>, <[{u'Name': u'All Attributes', u'Value': u'+10'}]>, <10>
Ran in 22799.018000 milliseconds.
Better solution found in 7 with 110
Script ran with tabu search using a max of 300 iterations and a tabu list with size 200.
Ended by iteration limit.
Best solution found with 5 move(s).
Initial solution was: [<Assault Cuirass>, <[{u'Name': u'Attack Speed', u'Value': u'+35'}, {u'Name': u'Armor', u'Value': u'+10'}, {u'Name': u'AURA ATTACK SPEED:', u'Value': u'20'}, {u'Name': u'AURA BONUS ARMOR:', u'Value': u'5'}, {u'Name': u'ARMOR REDUCTION:', u'Value': u'5'}]>, <0>, <Necronomicon>, <[{u'Name': u'', u'Value': u'+'}, {u'Name': u'', u'Value': u'+'}]>, <0>, <Quelling Blade>, <[{u'Name': u'MELEE BONUS:', u'Value': u'32%'}, {u'Name': u'RANGED BONUS:', u'Value': u'12%'}]>, <0>, <Tango>, <[{u'Name': u'DURATION:', u'Value': u'16'}, {u'Name': u'HEALTH RESTORED:', u'Value': u'115'}]>, <0>, <Chainmail>, <[{u'Name': u'Armor', u'Value': u'+5'}]>, <0>, <Power Treads>, <[{u'Name': u'Movement Speed', u'Value': u'+55'}, {u'Name': u'Selected Attribute', u'Value': u'+8'}, {u'Name': u'Attack Speed', u'Value': u'+30'}]>, <0>]
Movements made: 
--- <Remove [<Necronomicon>, <[{u'Name': u'', u'Value': u'+'}, {u'Name': u'', u'Value': u'+'}]>, <0>] | Add [<Heart of Tarrasque>, <[{u'Name': u'Strength', u'Value': u'+40'}, {u'Name': u'Health', u'Value': u'+300'}, {u'Name': u'HEALTH RESTORED:', u'Value': u'2%'}]>, <40>] | Improve 40> 
--- <Remove [<Quelling Blade>, <[{u'Name': u'MELEE BONUS:', u'Value': u'32%'}, {u'Name': u'RANGED BONUS:', u'Value': u'12%'}]>, <0>] | Add [<Reaver>, <[{u'Name': u'Strength', u'Value': u'+25'}]>, <25>] | Improve 25> 
--- <Remove [<Assault Cuirass>, <[{u'Name': u'Attack Speed', u'Value': u'+35'}, {u'Name': u'Armor', u'Value': u'+10'}, {u'Name': u'AURA ATTACK SPEED:', u'Value': u'20'}, {u'Name': u'AURA BONUS ARMOR:', u'Value': u'5'}, {u'Name': u'ARMOR REDUCTION:', u'Value': u'5'}]>, <0>] | Add [<Linken's Sphere>, <[{u'Name': u'All Attributes', u'Value': u'+15'}, {u'Name': u'HP Regeneration', u'Value': u'+6'}, {u'Name': u'Mana Regeneration', u'Value': u'+150%'}, {u'Name': u'Damage', u'Value': u'+10'}]>, <15>] | Improve 15> 
--- <Remove [<Chainmail>, <[{u'Name': u'Armor', u'Value': u'+5'}]>, <0>] | Add [<Black King Bar>, <[{u'Name': u'Strength', u'Value': u'+10'}, {u'Name': u'Damage', u'Value': u'+24'}, {u'Name': u'DURATION:', u'Value': u''}]>, <10>] | Improve 10> 
--- <Remove [] | Add [<Ultimate Orb>, <[{u'Name': u'All Attributes', u'Value': u'+10'}]>, <10>] | Improve 10> 
Initial fitness: 0
Final fitness: 110
Total improvement: 110
Weight left: 0
Initial Gold: 20000
Gold left: 1425
Number of items in solution: 5
List of items:
--- <Linken's Sphere>, <[{u'Name': u'All Attributes', u'Value': u'+15'}, {u'Name': u'HP Regeneration', u'Value': u'+6'}, {u'Name': u'Mana Regeneration', u'Value': u'+150%'}, {u'Name': u'Damage', u'Value': u'+10'}]>, <15>
--- <Ultimate Orb>, <[{u'Name': u'All Attributes', u'Value': u'+10'}]>, <10>
--- <Black King Bar>, <[{u'Name': u'Strength', u'Value': u'+10'}, {u'Name': u'Damage', u'Value': u'+24'}, {u'Name': u'DURATION:', u'Value': u''}]>, <10>
--- <Heart of Tarrasque>, <[{u'Name': u'Strength', u'Value': u'+40'}, {u'Name': u'Health', u'Value': u'+300'}, {u'Name': u'HEALTH RESTORED:', u'Value': u'2%'}]>, <40>
--- <Reaver>, <[{u'Name': u'Strength', u'Value': u'+25'}]>, <25>
Ran in 22656.034000 milliseconds.
Better solution found in 7 with 110
Script ran with tabu search using a max of 300 iterations and a tabu list with size 200.
Ended by iteration limit.
Best solution found with 5 move(s).
Initial solution was: [<Wraith Band>, <[{u'Name': u'Strength', u'Value': u'+3'}, {u'Name': u'Agility', u'Value': u'+6'}, {u'Name': u'Intelligence', u'Value': u'+3'}, {u'Name': u'Damage', u'Value': u'+3'}]>, <3>, <Dagon>, <[{u'Name': u'', u'Value': u'+'}, {u'Name': u'All Attributes', u'Value': u'+3'}, {u'Name': u'Damage', u'Value': u'+9'}, {u'Name': u'BURST DAMAGE:', u'Value': u'400'}]>, <3>, <Aegis of the Immortal>, <[]>, <0>, <Recipe: Scythe of Vyse>, <None>, <0>, <Dust of Appearance>, <[{u'Name': u'DURATION:', u'Value': u'12'}, {u'Name': u'RADIUS:', u'Value': u'1050'}]>, <0>, <Recipe: Heart of Tarrasque>, <None>, <0>]
Movements made: 
--- <Remove [<Recipe: Heart of Tarrasque>, <None>, <0>] | Add [<Heart of Tarrasque>, <[{u'Name': u'Strength', u'Value': u'+40'}, {u'Name': u'Health', u'Value': u'+300'}, {u'Name': u'HEALTH RESTORED:', u'Value': u'2%'}]>, <40>] | Improve 40> 
--- <Remove [<Dust of Appearance>, <[{u'Name': u'DURATION:', u'Value': u'12'}, {u'Name': u'RADIUS:', u'Value': u'1050'}]>, <0>] | Add [<Reaver>, <[{u'Name': u'Strength', u'Value': u'+25'}]>, <25>] | Improve 25> 
--- <Remove [<Recipe: Scythe of Vyse>, <None>, <0>] | Add [<Linken's Sphere>, <[{u'Name': u'All Attributes', u'Value': u'+15'}, {u'Name': u'HP Regeneration', u'Value': u'+6'}, {u'Name': u'Mana Regeneration', u'Value': u'+150%'}, {u'Name': u'Damage', u'Value': u'+10'}]>, <15>] | Improve 15> 
--- <Remove [<Aegis of the Immortal>, <[]>, <0>] | Add [<Ultimate Orb>, <[{u'Name': u'All Attributes', u'Value': u'+10'}]>, <10>] | Improve 10> 
--- <Remove [] | Add [<Ogre Club>, <[{u'Name': u'Strength', u'Value': u'+10'}]>, <10>] | Improve 10> 
Initial fitness: 6
Final fitness: 110
Total improvement: 104
Weight left: 1
Initial Gold: 20000
Gold left: 3025
Number of items in solution: 5
List of items:
--- <Linken's Sphere>, <[{u'Name': u'All Attributes', u'Value': u'+15'}, {u'Name': u'HP Regeneration', u'Value': u'+6'}, {u'Name': u'Mana Regeneration', u'Value': u'+150%'}, {u'Name': u'Damage', u'Value': u'+10'}]>, <15>
--- <Heart of Tarrasque>, <[{u'Name': u'Strength', u'Value': u'+40'}, {u'Name': u'Health', u'Value': u'+300'}, {u'Name': u'HEALTH RESTORED:', u'Value': u'2%'}]>, <40>
--- <Reaver>, <[{u'Name': u'Strength', u'Value': u'+25'}]>, <25>
--- <Ogre Club>, <[{u'Name': u'Strength', u'Value': u'+10'}]>, <10>
--- <Ultimate Orb>, <[{u'Name': u'All Attributes', u'Value': u'+10'}]>, <10>
Ran in 21945.698000 milliseconds.
Better solution found in 15 with 2010
Script ran with tabu search using a max of 300 iterations and a tabu list with size 200.
Ended by iteration limit.
Best solution found with 12 move(s).
Initial solution was: [<Ultimate Orb>, <[{u'Name': u'All Attributes', u'Value': u'+10'}]>, <20>, <Bottle>, <[{u'Name': u'HEALTH RESTORED:', u'Value': u'135'}, {u'Name': u'MANA RESTORED:', u'Value': u'70'}, {u'Name': u'DURATION:', u'Value': u'3'}]>, <0>, <Pipe of Insight>, <[{u'Name': u'HP Regeneration', u'Value': u'+11'}, {u'Name': u'Spell Resistance', u'Value': u'+30%'}]>, <0>, <Flying Courier>, <[]>, <0>, <Blades of Attack>, <[{u'Name': u'Damage', u'Value': u'+9'}]>, <0>, <Headdress>, <[{u'Name': u'All Attributes', u'Value': u'+2'}, {u'Name': u'BONUS REGEN:', u'Value': u'3'}]>, <4>]
Movements made: 
--- <Remove [<Blades of Attack>, <[{u'Name': u'Damage', u'Value': u'+9'}]>, <0>] | Add [<Bloodstone>, <[{u'Name': u'Health', u'Value': u'+500'}, {u'Name': u'Mana', u'Value': u'+400'}, {u'Name': u'HP Regeneration', u'Value': u'+9'}, {u'Name': u'Mana Regeneration', u'Value': u'+200%'}]>, <500>] | Improve 500> 
--- <Remove [<Pipe of Insight>, <[{u'Name': u'HP Regeneration', u'Value': u'+11'}, {u'Name': u'Spell Resistance', u'Value': u'+30%'}]>, <0>] | Add [<Soul Booster>, <[{u'Name': u'Health', u'Value': u'+450'}, {u'Name': u'Mana', u'Value': u'+400'}, {u'Name': u'HP Regeneration', u'Value': u'+4'}, {u'Name': u'Mana Regeneration', u'Value': u'+100%'}]>, <450>] | Improve 450> 
--- <Remove [<Bottle>, <[{u'Name': u'HEALTH RESTORED:', u'Value': u'135'}, {u'Name': u'MANA RESTORED:', u'Value': u'70'}, {u'Name': u'DURATION:', u'Value': u'3'}]>, <0>] | Add [<Heart of Tarrasque>, <[{u'Name': u'Strength', u'Value': u'+40'}, {u'Name': u'Health', u'Value': u'+300'}, {u'Name': u'HEALTH RESTORED:', u'Value': u'2%'}]>, <340>] | Improve 340> 
--- <Remove [<Flying Courier>, <[]>, <0>] | Add [<Vanguard>, <[{u'Name': u'Health', u'Value': u'+250'}, {u'Name': u'HP Regeneration', u'Value': u'+6'}, {u'Name': u'BLOCK CHANCE:', u'Value': u'70%'}, {u'Name': u'RANGED BLOCK:', u'Value': u'20'}, {u'Name': u'MELEE BLOCK:', u'Value': u'40'}]>, <250>] | Improve 250> 
--- <Remove [<Headdress>, <[{u'Name': u'All Attributes', u'Value': u'+2'}, {u'Name': u'BONUS REGEN:', u'Value': u'3'}]>, <4>] | Add [<Vitality Booster>, <[{u'Name': u'Health', u'Value': u'+250'}]>, <250>] | Improve 246> 
--- <Remove [<Ultimate Orb>, <[{u'Name': u'All Attributes', u'Value': u'+10'}]>, <20>] | Add [<Point Booster>, <[{u'Name': u'Mana', u'Value': u'+150'}, {u'Name': u'Health', u'Value': u'+200'}]>, <200>] | Improve 180> 
--- <Remove [] | Add [<Vitality Booster>, <[{u'Name': u'Health', u'Value': u'+250'}]>, <250>] | Improve 250> 
--- <Remove [<Heart of Tarrasque>, <[{u'Name': u'Strength', u'Value': u'+40'}, {u'Name': u'Health', u'Value': u'+300'}, {u'Name': u'HEALTH RESTORED:', u'Value': u'2%'}]>, <340>] | Add [<Aghanim's Scepter>, <[{u'Name': u'All Attributes', u'Value': u'+10'}, {u'Name': u'Health', u'Value': u'+200'}, {u'Name': u'Mana', u'Value': u'+150'}]>, <220>] | Improve -120> 
--- <Remove [<Aghanim's Scepter>, <[{u'Name': u'All Attributes', u'Value': u'+10'}, {u'Name': u'Health', u'Value': u'+200'}, {u'Name': u'Mana', u'Value': u'+150'}]>, <220>] | Add [<Heart of Tarrasque>, <[{u'Name': u'Strength', u'Value': u'+40'}, {u'Name': u'Health', u'Value': u'+300'}, {u'Name': u'HEALTH RESTORED:', u'Value': u'2%'}]>, <340>] | Improve 120> 
--- <Remove [] | Add [<Point Booster>, <[{u'Name': u'Mana', u'Value': u'+150'}, {u'Name': u'Health', u'Value': u'+200'}]>, <200>] | Improve 200> 
--- <Remove [<Point Booster>, <[{u'Name': u'Mana', u'Value': u'+150'}, {u'Name': u'Health', u'Value': u'+200'}]>, <200>] | Add [<Ultimate Orb>, <[{u'Name': u'All Attributes', u'Value': u'+10'}]>, <20>] | Improve -180> 
--- <Remove [<Ultimate Orb>, <[{u'Name': u'All Attributes', u'Value': u'+10'}]>, <20>] | Add [<Ghost Scepter>, <[{u'Name': u'All Attributes', u'Value': u'+7'}, {u'Name': u'GHOST DURATION:', u'Value': u'4'}]>, <14>] | Improve -6> 
Initial fitness: 24
Final fitness: 2010
Total improvement: 1986
Weight left: 0
Initial Gold: 20000
Gold left: 725
Number of items in solution: 5
List of items:
--- <Heart of Tarrasque>, <[{u'Name': u'Strength', u'Value': u'+40'}, {u'Name': u'Health', u'Value': u'+300'}, {u'Name': u'HEALTH RESTORED:', u'Value': u'2%'}]>, <340>
--- <Bloodstone>, <[{u'Name': u'Health', u'Value': u'+500'}, {u'Name': u'Mana', u'Value': u'+400'}, {u'Name': u'HP Regeneration', u'Value': u'+9'}, {u'Name': u'Mana Regeneration', u'Value': u'+200%'}]>, <500>
--- <Vanguard>, <[{u'Name': u'Health', u'Value': u'+250'}, {u'Name': u'HP Regeneration', u'Value': u'+6'}, {u'Name': u'BLOCK CHANCE:', u'Value': u'70%'}, {u'Name': u'RANGED BLOCK:', u'Value': u'20'}, {u'Name': u'MELEE BLOCK:', u'Value': u'40'}]>, <250>
--- <Vitality Booster>, <[{u'Name': u'Health', u'Value': u'+250'}]>, <250>
--- <Soul Booster>, <[{u'Name': u'Health', u'Value': u'+450'}, {u'Name': u'Mana', u'Value': u'+400'}, {u'Name': u'HP Regeneration', u'Value': u'+4'}, {u'Name': u'Mana Regeneration', u'Value': u'+100%'}]>, <450>
Ran in 24230.732000 milliseconds.
Better solution found in 12 with 2010
Script ran with tabu search using a max of 300 iterations and a tabu list with size 200.
Ended by iteration limit.
Best solution found with 9 move(s).
Initial solution was: [<Shiva's Guard>, <[{u'Name': u'Intelligence', u'Value': u'+30'}, {u'Name': u'Armor', u'Value': u'+15'}, {u'Name': u'AURA SLOW:', u'Value': u'30%'}]>, <0>, <Recipe: Orchid>, <None>, <0>, <Phase Boots>, <[{u'Name': u'PHASE DURATION:', u'Value': u'4'}, {u'Name': u'PHASE MOVE BOOST:', u'Value': u'16%'}, {u'Name': u'Movement Speed', u'Value': u'+55'}, {u'Name': u'Damage', u'Value': u'+24'}]>, <0>, <Eaglesong>, <[{u'Name': u'Agility', u'Value': u'+25'}]>, <0>, <Javelin>, <[{u'Name': u'Damage', u'Value': u'+21'}, {u'Name': u'CHANCE TO PIERCE:', u'Value': u'20%'}, {u'Name': u'PIERCE DAMAGE:', u'Value': u'40'}]>, <0>, <Pipe of Insight>, <[{u'Name': u'HP Regeneration', u'Value': u'+11'}, {u'Name': u'Spell Resistance', u'Value': u'+30%'}]>, <0>]
Movements made: 
--- <Remove [<Recipe: Orchid>, <None>, <0>] | Add [<Bloodstone>, <[{u'Name': u'Health', u'Value': u'+500'}, {u'Name': u'Mana', u'Value': u'+400'}, {u'Name': u'HP Regeneration', u'Value': u'+9'}, {u'Name': u'Mana Regeneration', u'Value': u'+200%'}]>, <500>] | Improve 500> 
--- <Remove [<Phase Boots>, <[{u'Name': u'PHASE DURATION:', u'Value': u'4'}, {u'Name': u'PHASE MOVE BOOST:', u'Value': u'16%'}, {u'Name': u'Movement Speed', u'Value': u'+55'}, {u'Name': u'Damage', u'Value': u'+24'}]>, <0>] | Add [<Soul Booster>, <[{u'Name': u'Health', u'Value': u'+450'}, {u'Name': u'Mana', u'Value': u'+400'}, {u'Name': u'HP Regeneration', u'Value': u'+4'}, {u'Name': u'Mana Regeneration', u'Value': u'+100%'}]>, <450>] | Improve 450> 
--- <Remove [<Shiva's Guard>, <[{u'Name': u'Intelligence', u'Value': u'+30'}, {u'Name': u'Armor', u'Value': u'+15'}, {u'Name': u'AURA SLOW:', u'Value': u'30%'}]>, <0>] | Add [<Vitality Booster>, <[{u'Name': u'Health', u'Value': u'+250'}]>, <250>] | Improve 250> 
--- <Remove [<Eaglesong>, <[{u'Name': u'Agility', u'Value': u'+25'}]>, <0>] | Add [<Heart of Tarrasque>, <[{u'Name': u'Strength', u'Value': u'+40'}, {u'Name': u'Health', u'Value': u'+300'}, {u'Name': u'HEALTH RESTORED:', u'Value': u'2%'}]>, <340>] | Improve 340> 
--- <Remove [<Pipe of Insight>, <[{u'Name': u'HP Regeneration', u'Value': u'+11'}, {u'Name': u'Spell Resistance', u'Value': u'+30%'}]>, <0>] | Add [<Vanguard>, <[{u'Name': u'Health', u'Value': u'+250'}, {u'Name': u'HP Regeneration', u'Value': u'+6'}, {u'Name': u'BLOCK CHANCE:', u'Value': u'70%'}, {u'Name': u'RANGED BLOCK:', u'Value': u'20'}, {u'Name': u'MELEE BLOCK:', u'Value': u'40'}]>, <250>] | Improve 250> 
--- <Remove [] | Add [<Point Booster>, <[{u'Name': u'Mana', u'Value': u'+150'}, {u'Name': u'Health', u'Value': u'+200'}]>, <200>] | Improve 200> 
--- <Remove [<Heart of Tarrasque>, <[{u'Name': u'Strength', u'Value': u'+40'}, {u'Name': u'Health', u'Value': u'+300'}, {u'Name': u'HEALTH RESTORED:', u'Value': u'2%'}]>, <340>] | Add [<Aghanim's Scepter>, <[{u'Name': u'All Attributes', u'Value': u'+10'}, {u'Name': u'Health', u'Value': u'+200'}, {u'Name': u'Mana', u'Value': u'+150'}]>, <220>] | Improve -120> 
--- <Remove [<Aghanim's Scepter>, <[{u'Name': u'All Attributes', u'Value': u'+10'}, {u'Name': u'Health', u'Value': u'+200'}, {u'Name': u'Mana', u'Value': u'+150'}]>, <220>] | Add [<Heart of Tarrasque>, <[{u'Name': u'Strength', u'Value': u'+40'}, {u'Name': u'Health', u'Value': u'+300'}, {u'Name': u'HEALTH RESTORED:', u'Value': u'2%'}]>, <340>] | Improve 120> 
--- <Remove [] | Add [<Vitality Booster>, <[{u'Name': u'Health', u'Value': u'+250'}]>, <250>] | Improve 250> 
Initial fitness: 0
Final fitness: 2010
Total improvement: 2010
Weight left: 0
Initial Gold: 20000
Gold left: 1625
Number of items in solution: 5
List of items:
--- <Soul Booster>, <[{u'Name': u'Health', u'Value': u'+450'}, {u'Name': u'Mana', u'Value': u'+400'}, {u'Name': u'HP Regeneration', u'Value': u'+4'}, {u'Name': u'Mana Regeneration', u'Value': u'+100%'}]>, <450>
--- <Vanguard>, <[{u'Name': u'Health', u'Value': u'+250'}, {u'Name': u'HP Regeneration', u'Value': u'+6'}, {u'Name': u'BLOCK CHANCE:', u'Value': u'70%'}, {u'Name': u'RANGED BLOCK:', u'Value': u'20'}, {u'Name': u'MELEE BLOCK:', u'Value': u'40'}]>, <250>
--- <Heart of Tarrasque>, <[{u'Name': u'Strength', u'Value': u'+40'}, {u'Name': u'Health', u'Value': u'+300'}, {u'Name': u'HEALTH RESTORED:', u'Value': u'2%'}]>, <340>
--- <Bloodstone>, <[{u'Name': u'Health', u'Value': u'+500'}, {u'Name': u'Mana', u'Value': u'+400'}, {u'Name': u'HP Regeneration', u'Value': u'+9'}, {u'Name': u'Mana Regeneration', u'Value': u'+200%'}]>, <500>
--- <Vitality Booster>, <[{u'Name': u'Health', u'Value': u'+250'}]>, <250>
Ran in 23945.669000 milliseconds.
Better solution found in 7 with 2010
Script ran with tabu search using a max of 300 iterations and a tabu list with size 200.
Ended by iteration limit.
Best solution found with 6 move(s).
Initial solution was: [<Ogre Club>, <[{u'Name': u'Strength', u'Value': u'+10'}]>, <10>, <Staff of Wizardry>, <[{u'Name': u'Intelligence', u'Value': u'+10'}]>, <0>, <Recipe: Black King Bar>, <None>, <0>, <Recipe: Bracer>, <None>, <0>, <Sentry Ward>, <[]>, <0>, <Blades of Attack>, <[{u'Name': u'Damage', u'Value': u'+9'}]>, <0>]
Movements made: 
--- <Remove [<Blades of Attack>, <[{u'Name': u'Damage', u'Value': u'+9'}]>, <0>] | Add [<Bloodstone>, <[{u'Name': u'Health', u'Value': u'+500'}, {u'Name': u'Mana', u'Value': u'+400'}, {u'Name': u'HP Regeneration', u'Value': u'+9'}, {u'Name': u'Mana Regeneration', u'Value': u'+200%'}]>, <500>] | Improve 500> 
--- <Remove [<Staff of Wizardry>, <[{u'Name': u'Intelligence', u'Value': u'+10'}]>, <0>] | Add [<Soul Booster>, <[{u'Name': u'Health', u'Value': u'+450'}, {u'Name': u'Mana', u'Value': u'+400'}, {u'Name': u'HP Regeneration', u'Value': u'+4'}, {u'Name': u'Mana Regeneration', u'Value': u'+100%'}]>, <450>] | Improve 450> 
--- <Remove [<Sentry Ward>, <[]>, <0>] | Add [<Heart of Tarrasque>, <[{u'Name': u'Strength', u'Value': u'+40'}, {u'Name': u'Health', u'Value': u'+300'}, {u'Name': u'HEALTH RESTORED:', u'Value': u'2%'}]>, <340>] | Improve 340> 
--- <Remove [<Recipe: Bracer>, <None>, <0>] | Add [<Vitality Booster>, <[{u'Name': u'Health', u'Value': u'+250'}]>, <250>] | Improve 250> 
--- <Remove [<Recipe: Black King Bar>, <None>, <0>] | Add [<Vanguard>, <[{u'Name': u'Health', u'Value': u'+250'}, {u'Name': u'HP Regeneration', u'Value': u'+6'}, {u'Name': u'BLOCK CHANCE:', u'Value': u'70%'}, {u'Name': u'RANGED BLOCK:', u'Value': u'20'}, {u'Name': u'MELEE BLOCK:', u'Value': u'40'}]>, <250>] | Improve 250> 
--- <Remove [<Ogre Club>, <[{u'Name': u'Strength', u'Value': u'+10'}]>, <10>] | Add [<Point Booster>, <[{u'Name': u'Mana', u'Value': u'+150'}, {u'Name': u'Health', u'Value': u'+200'}]>, <200>] | Improve 190> 
Initial fitness: 10
Final fitness: 2010
Total improvement: 2000
Weight left: 0
Initial Gold: 20000
Gold left: 1225
Number of items in solution: 5
List of items:
--- <Vitality Booster>, <[{u'Name': u'Health', u'Value': u'+250'}]>, <250>
--- <Vanguard>, <[{u'Name': u'Health', u'Value': u'+250'}, {u'Name': u'HP Regeneration', u'Value': u'+6'}, {u'Name': u'BLOCK CHANCE:', u'Value': u'70%'}, {u'Name': u'RANGED BLOCK:', u'Value': u'20'}, {u'Name': u'MELEE BLOCK:', u'Value': u'40'}]>, <250>
--- <Bloodstone>, <[{u'Name': u'Health', u'Value': u'+500'}, {u'Name': u'Mana', u'Value': u'+400'}, {u'Name': u'HP Regeneration', u'Value': u'+9'}, {u'Name': u'Mana Regeneration', u'Value': u'+200%'}]>, <500>
--- <Soul Booster>, <[{u'Name': u'Health', u'Value': u'+450'}, {u'Name': u'Mana', u'Value': u'+400'}, {u'Name': u'HP Regeneration', u'Value': u'+4'}, {u'Name': u'Mana Regeneration', u'Value': u'+100%'}]>, <450>
--- <Heart of Tarrasque>, <[{u'Name': u'Strength', u'Value': u'+40'}, {u'Name': u'Health', u'Value': u'+300'}, {u'Name': u'HEALTH RESTORED:', u'Value': u'2%'}]>, <340>
Ran in 23142.226000 milliseconds.
Better solution found in 10 with 2010
Script ran with tabu search using a max of 300 iterations and a tabu list with size 200.
Ended by iteration limit.
Best solution found with 8 move(s).
Initial solution was: [<Recipe: Refresher Orb>, <None>, <0>, <Clarity>, <[{u'Name': u'DURATION:', u'Value': u'30'}, {u'Name': u'MANA RESTORED:', u'Value': u'100'}]>, <0>, <Blink dagger>, <[]>, <0>, <Vanguard>, <[{u'Name': u'Health', u'Value': u'+250'}, {u'Name': u'HP Regeneration', u'Value': u'+6'}, {u'Name': u'BLOCK CHANCE:', u'Value': u'70%'}, {u'Name': u'RANGED BLOCK:', u'Value': u'20'}, {u'Name': u'MELEE BLOCK:', u'Value': u'40'}]>, <250>, <Mithril Hammer>, <[{u'Name': u'Damage', u'Value': u'+24'}]>, <0>, <Gloves of Haste>, <[{u'Name': u'Attack Speed', u'Value': u'+15'}]>, <0>]
Movements made: 
--- <Remove [<Gloves of Haste>, <[{u'Name': u'Attack Speed', u'Value': u'+15'}]>, <0>] | Add [<Bloodstone>, <[{u'Name': u'Health', u'Value': u'+500'}, {u'Name': u'Mana', u'Value': u'+400'}, {u'Name': u'HP Regeneration', u'Value': u'+9'}, {u'Name': u'Mana Regeneration', u'Value': u'+200%'}]>, <500>] | Improve 500> 
--- <Remove [<Clarity>, <[{u'Name': u'DURATION:', u'Value': u'30'}, {u'Name': u'MANA RESTORED:', u'Value': u'100'}]>, <0>] | Add [<Soul Booster>, <[{u'Name': u'Health', u'Value': u'+450'}, {u'Name': u'Mana', u'Value': u'+400'}, {u'Name': u'HP Regeneration', u'Value': u'+4'}, {u'Name': u'Mana Regeneration', u'Value': u'+100%'}]>, <450>] | Improve 450> 
--- <Remove [<Recipe: Refresher Orb>, <None>, <0>] | Add [<Heart of Tarrasque>, <[{u'Name': u'Strength', u'Value': u'+40'}, {u'Name': u'Health', u'Value': u'+300'}, {u'Name': u'HEALTH RESTORED:', u'Value': u'2%'}]>, <340>] | Improve 340> 
--- <Remove [<Blink dagger>, <[]>, <0>] | Add [<Vitality Booster>, <[{u'Name': u'Health', u'Value': u'+250'}]>, <250>] | Improve 250> 
--- <Remove [<Mithril Hammer>, <[{u'Name': u'Damage', u'Value': u'+24'}]>, <0>] | Add [<Point Booster>, <[{u'Name': u'Mana', u'Value': u'+150'}, {u'Name': u'Health', u'Value': u'+200'}]>, <200>] | Improve 200> 
--- <Remove [] | Add [<Vanguard>, <[{u'Name': u'Health', u'Value': u'+250'}, {u'Name': u'HP Regeneration', u'Value': u'+6'}, {u'Name': u'BLOCK CHANCE:', u'Value': u'70%'}, {u'Name': u'RANGED BLOCK:', u'Value': u'20'}, {u'Name': u'MELEE BLOCK:', u'Value': u'40'}]>, <250>] | Improve 250> 
--- <Remove [<Heart of Tarrasque>, <[{u'Name': u'Strength', u'Value': u'+40'}, {u'Name': u'Health', u'Value': u'+300'}, {u'Name': u'HEALTH RESTORED:', u'Value': u'2%'}]>, <340>] | Add [<Aghanim's Scepter>, <[{u'Name': u'All Attributes', u'Value': u'+10'}, {u'Name': u'Health', u'Value': u'+200'}, {u'Name': u'Mana', u'Value': u'+150'}]>, <220>] | Improve -120> 
--- <Remove [<Aghanim's Scepter>, <[{u'Name': u'All Attributes', u'Value': u'+10'}, {u'Name': u'Health', u'Value': u'+200'}, {u'Name': u'Mana', u'Value': u'+150'}]>, <220>] | Add [<Heart of Tarrasque>, <[{u'Name': u'Strength', u'Value': u'+40'}, {u'Name': u'Health', u'Value': u'+300'}, {u'Name': u'HEALTH RESTORED:', u'Value': u'2%'}]>, <340>] | Improve 120> 
Initial fitness: 250
Final fitness: 2010
Total improvement: 1760
Weight left: 0
Initial Gold: 20000
Gold left: 1825
Number of items in solution: 5
List of items:
--- <Vanguard>, <[{u'Name': u'Health', u'Value': u'+250'}, {u'Name': u'HP Regeneration', u'Value': u'+6'}, {u'Name': u'BLOCK CHANCE:', u'Value': u'70%'}, {u'Name': u'RANGED BLOCK:', u'Value': u'20'}, {u'Name': u'MELEE BLOCK:', u'Value': u'40'}]>, <250>
--- <Heart of Tarrasque>, <[{u'Name': u'Strength', u'Value': u'+40'}, {u'Name': u'Health', u'Value': u'+300'}, {u'Name': u'HEALTH RESTORED:', u'Value': u'2%'}]>, <340>
--- <Bloodstone>, <[{u'Name': u'Health', u'Value': u'+500'}, {u'Name': u'Mana', u'Value': u'+400'}, {u'Name': u'HP Regeneration', u'Value': u'+9'}, {u'Name': u'Mana Regeneration', u'Value': u'+200%'}]>, <500>
--- <Vitality Booster>, <[{u'Name': u'Health', u'Value': u'+250'}]>, <250>
--- <Soul Booster>, <[{u'Name': u'Health', u'Value': u'+450'}, {u'Name': u'Mana', u'Value': u'+400'}, {u'Name': u'HP Regeneration', u'Value': u'+4'}, {u'Name': u'Mana Regeneration', u'Value': u'+100%'}]>, <450>
Ran in 23127.696000 milliseconds.
Better solution found in 8 with 2020
Script ran with tabu search using a max of 300 iterations and a tabu list with size 200.
Ended by iteration limit.
Best solution found with 7 move(s).
Initial solution was: [<Flying Courier>, <[]>, <0>, <Mystic Staff>, <[{u'Name': u'Intelligence', u'Value': u'+25'}]>, <0>, <Recipe: Orchid>, <None>, <0>, <Ghost Scepter>, <[{u'Name': u'All Attributes', u'Value': u'+7'}, {u'Name': u'GHOST DURATION:', u'Value': u'4'}]>, <21>, <Clarity>, <[{u'Name': u'DURATION:', u'Value': u'30'}, {u'Name': u'MANA RESTORED:', u'Value': u'100'}]>, <0>, <Recipe: Poor Man's Shield>, <None>, <0>]
Movements made: 
--- <Remove [<Recipe: Poor Man's Shield>, <None>, <0>] | Add [<Bloodstone>, <[{u'Name': u'Health', u'Value': u'+500'}, {u'Name': u'Mana', u'Value': u'+400'}, {u'Name': u'HP Regeneration', u'Value': u'+9'}, {u'Name': u'Mana Regeneration', u'Value': u'+200%'}]>, <500>] | Improve 500> 
--- <Remove [<Recipe: Orchid>, <None>, <0>] | Add [<Soul Booster>, <[{u'Name': u'Health', u'Value': u'+450'}, {u'Name': u'Mana', u'Value': u'+400'}, {u'Name': u'HP Regeneration', u'Value': u'+4'}, {u'Name': u'Mana Regeneration', u'Value': u'+100%'}]>, <450>] | Improve 450> 
--- <Remove [<Clarity>, <[{u'Name': u'DURATION:', u'Value': u'30'}, {u'Name': u'MANA RESTORED:', u'Value': u'100'}]>, <0>] | Add [<Heart of Tarrasque>, <[{u'Name': u'Strength', u'Value': u'+40'}, {u'Name': u'Health', u'Value': u'+300'}, {u'Name': u'HEALTH RESTORED:', u'Value': u'2%'}]>, <340>] | Improve 340> 
--- <Remove [<Mystic Staff>, <[{u'Name': u'Intelligence', u'Value': u'+25'}]>, <0>] | Add [<Vitality Booster>, <[{u'Name': u'Health', u'Value': u'+250'}]>, <250>] | Improve 250> 
--- <Remove [<Flying Courier>, <[]>, <0>] | Add [<Vanguard>, <[{u'Name': u'Health', u'Value': u'+250'}, {u'Name': u'HP Regeneration', u'Value': u'+6'}, {u'Name': u'BLOCK CHANCE:', u'Value': u'70%'}, {u'Name': u'RANGED BLOCK:', u'Value': u'20'}, {u'Name': u'MELEE BLOCK:', u'Value': u'40'}]>, <250>] | Improve 250> 
--- <Remove [<Ghost Scepter>, <[{u'Name': u'All Attributes', u'Value': u'+7'}, {u'Name': u'GHOST DURATION:', u'Value': u'4'}]>, <21>] | Add [<Point Booster>, <[{u'Name': u'Mana', u'Value': u'+150'}, {u'Name': u'Health', u'Value': u'+200'}]>, <200>] | Improve 179> 
--- <Remove [<Heart of Tarrasque>, <[{u'Name': u'Strength', u'Value': u'+40'}, {u'Name': u'Health', u'Value': u'+300'}, {u'Name': u'HEALTH RESTORED:', u'Value': u'2%'}]>, <340>] | Add [<Aghanim's Scepter>, <[{u'Name': u'All Attributes', u'Value': u'+10'}, {u'Name': u'Health', u'Value': u'+200'}, {u'Name': u'Mana', u'Value': u'+150'}]>, <230>] | Improve -110> 
Initial fitness: 21
Final fitness: 2020
Total improvement: 1999
Weight left: 0
Initial Gold: 20000
Gold left: 725
Number of items in solution: 5
List of items:
--- <Vanguard>, <[{u'Name': u'Health', u'Value': u'+250'}, {u'Name': u'HP Regeneration', u'Value': u'+6'}, {u'Name': u'BLOCK CHANCE:', u'Value': u'70%'}, {u'Name': u'RANGED BLOCK:', u'Value': u'20'}, {u'Name': u'MELEE BLOCK:', u'Value': u'40'}]>, <250>
--- <Aghanim's Scepter>, <[{u'Name': u'All Attributes', u'Value': u'+10'}, {u'Name': u'Health', u'Value': u'+200'}, {u'Name': u'Mana', u'Value': u'+150'}]>, <230>
--- <Bloodstone>, <[{u'Name': u'Health', u'Value': u'+500'}, {u'Name': u'Mana', u'Value': u'+400'}, {u'Name': u'HP Regeneration', u'Value': u'+9'}, {u'Name': u'Mana Regeneration', u'Value': u'+200%'}]>, <500>
--- <Vitality Booster>, <[{u'Name': u'Health', u'Value': u'+250'}]>, <250>
--- <Soul Booster>, <[{u'Name': u'Health', u'Value': u'+450'}, {u'Name': u'Mana', u'Value': u'+400'}, {u'Name': u'HP Regeneration', u'Value': u'+4'}, {u'Name': u'Mana Regeneration', u'Value': u'+100%'}]>, <450>
Ran in 22870.343000 milliseconds.
Better solution found in 13 with 2020
Script ran with tabu search using a max of 300 iterations and a tabu list with size 200.
Ended by iteration limit.
Best solution found with 11 move(s).
Initial solution was: [<Ring of Health>, <[{u'Name': u'HP Regeneration', u'Value': u'+5'}]>, <0>, <Slippers of Agility>, <[{u'Name': u'Agility', u'Value': u'+3'}]>, <0>, <Sentry Ward>, <[]>, <0>, <Recipe: Oblivion Staff>, <None>, <0>, <Recipe: Vanguard>, <None>, <0>, <Recipe: Vladmir's Offering>, <None>, <0>]
Movements made: 
--- <Remove [<Sentry Ward>, <[]>, <0>] | Add [<Bloodstone>, <[{u'Name': u'Health', u'Value': u'+500'}, {u'Name': u'Mana', u'Value': u'+400'}, {u'Name': u'HP Regeneration', u'Value': u'+9'}, {u'Name': u'Mana Regeneration', u'Value': u'+200%'}]>, <500>] | Improve 500> 
--- <Remove [<Recipe: Vanguard>, <None>, <0>] | Add [<Soul Booster>, <[{u'Name': u'Health', u'Value': u'+450'}, {u'Name': u'Mana', u'Value': u'+400'}, {u'Name': u'HP Regeneration', u'Value': u'+4'}, {u'Name': u'Mana Regeneration', u'Value': u'+100%'}]>, <450>] | Improve 450> 
--- <Remove [<Recipe: Vladmir's Offering>, <None>, <0>] | Add [<Heart of Tarrasque>, <[{u'Name': u'Strength', u'Value': u'+40'}, {u'Name': u'Health', u'Value': u'+300'}, {u'Name': u'HEALTH RESTORED:', u'Value': u'2%'}]>, <340>] | Improve 340> 
--- <Remove [<Recipe: Oblivion Staff>, <None>, <0>] | Add [<Vanguard>, <[{u'Name': u'Health', u'Value': u'+250'}, {u'Name': u'HP Regeneration', u'Value': u'+6'}, {u'Name': u'BLOCK CHANCE:', u'Value': u'70%'}, {u'Name': u'RANGED BLOCK:', u'Value': u'20'}, {u'Name': u'MELEE BLOCK:', u'Value': u'40'}]>, <250>] | Improve 250> 
--- <Remove [<Ring of Health>, <[{u'Name': u'HP Regeneration', u'Value': u'+5'}]>, <0>] | Add [<Vitality Booster>, <[{u'Name': u'Health', u'Value': u'+250'}]>, <250>] | Improve 250> 
--- <Remove [<Slippers of Agility>, <[{u'Name': u'Agility', u'Value': u'+3'}]>, <0>] | Add [<Point Booster>, <[{u'Name': u'Mana', u'Value': u'+150'}, {u'Name': u'Health', u'Value': u'+200'}]>, <200>] | Improve 200> 
--- <Remove [<Heart of Tarrasque>, <[{u'Name': u'Strength', u'Value': u'+40'}, {u'Name': u'Health', u'Value': u'+300'}, {u'Name': u'HEALTH RESTORED:', u'Value': u'2%'}]>, <340>] | Add [<Aghanim's Scepter>, <[{u'Name': u'All Attributes', u'Value': u'+10'}, {u'Name': u'Health', u'Value': u'+200'}, {u'Name': u'Mana', u'Value': u'+150'}]>, <230>] | Improve -110> 
--- <Remove [<Aghanim's Scepter>, <[{u'Name': u'All Attributes', u'Value': u'+10'}, {u'Name': u'Health', u'Value': u'+200'}, {u'Name': u'Mana', u'Value': u'+150'}]>, <230>] | Add [<Heart of Tarrasque>, <[{u'Name': u'Strength', u'Value': u'+40'}, {u'Name': u'Health', u'Value': u'+300'}, {u'Name': u'HEALTH RESTORED:', u'Value': u'2%'}]>, <340>] | Improve 110> 
--- <Remove [] | Add [<Vitality Booster>, <[{u'Name': u'Health', u'Value': u'+250'}]>, <250>] | Improve 250> 
--- <Remove [<Point Booster>, <[{u'Name': u'Mana', u'Value': u'+150'}, {u'Name': u'Health', u'Value': u'+200'}]>, <200>] | Add [<Hyperstone>, <[{u'Name': u'Attack Speed', u'Value': u'+55'}]>, <55>] | Improve -145> 
--- <Remove [<Hyperstone>, <[{u'Name': u'Attack Speed', u'Value': u'+55'}]>, <55>] | Add [<Point Booster>, <[{u'Name': u'Mana', u'Value': u'+150'}, {u'Name': u'Health', u'Value': u'+200'}]>, <200>] | Improve 145> 
Initial fitness: 0
Final fitness: 2020
Total improvement: 2020
Weight left: 0
Initial Gold: 20000
Gold left: 925
Number of items in solution: 5
List of items:
--- <Heart of Tarrasque>, <[{u'Name': u'Strength', u'Value': u'+40'}, {u'Name': u'Health', u'Value': u'+300'}, {u'Name': u'HEALTH RESTORED:', u'Value': u'2%'}]>, <340>
--- <Vitality Booster>, <[{u'Name': u'Health', u'Value': u'+250'}]>, <250>
--- <Vanguard>, <[{u'Name': u'Health', u'Value': u'+250'}, {u'Name': u'HP Regeneration', u'Value': u'+6'}, {u'Name': u'BLOCK CHANCE:', u'Value': u'70%'}, {u'Name': u'RANGED BLOCK:', u'Value': u'20'}, {u'Name': u'MELEE BLOCK:', u'Value': u'40'}]>, <250>
--- <Soul Booster>, <[{u'Name': u'Health', u'Value': u'+450'}, {u'Name': u'Mana', u'Value': u'+400'}, {u'Name': u'HP Regeneration', u'Value': u'+4'}, {u'Name': u'Mana Regeneration', u'Value': u'+100%'}]>, <450>
--- <Bloodstone>, <[{u'Name': u'Health', u'Value': u'+500'}, {u'Name': u'Mana', u'Value': u'+400'}, {u'Name': u'HP Regeneration', u'Value': u'+9'}, {u'Name': u'Mana Regeneration', u'Value': u'+200%'}]>, <500>
Ran in 22751.462000 milliseconds.
