size;gold;number_of_attributes;time
6;10000;1;6975.504
6;15000;1;15896.61
6;20000;1;16639.385
6;25000;1;17566.977
6;30000;1;17564.653
6;35000;1;17065.9
6;40000;1;17143.375
6;45000;1;16814.972
6;50000;1;17087.62

6;20000;1;2507.895
6;20000;1;3960.128
6;20000;1;5424.51
6;20000;1;8897.816
6;20000;1;10112.112
6;20000;1;13031.411
6;20000;1;17843.766

6;20000;1;22686.133
12;20000;1;21965.681
20;20000;2;20845.112
25;20000;2;26575.54
35;20000;3;23789.689
40;20000;3;26347.436
45;20000;4;27048.464
50;20000;4;28308.944
55;20000;4;34814.438
60;20000;4;40508.627
65;20000;4;48720.492
70;20000;4;37756.897
